<?xml version="1.0" encoding="utf-8"  standalone="no"?>
<!DOCTYPE svg PUBLIC "-//W3C//DTD SVG 1.1//EN"
 "http://www.w3.org/Graphics/SVG/1.1/DTD/svg11.dtd">
<svg 
 width="800" height="600"
 viewBox="0 0 800 600"
 xmlns="http://www.w3.org/2000/svg"
 xmlns:xlink="http://www.w3.org/1999/xlink"
>

<title>Gnuplot</title>
<desc>Produced by GNUPLOT 5.0 patchlevel 3 </desc>

<g id="gnuplot_canvas">

<rect x="0" y="0" width="800" height="600" fill="#ffffff"/>
<defs>

	<circle id='gpDot' r='0.5' stroke-width='0.5'/>
	<path id='gpPt0' stroke-width='0.148' stroke='currentColor' d='M-1,0 h2 M0,-1 v2'/>
	<path id='gpPt1' stroke-width='0.148' stroke='currentColor' d='M-1,-1 L1,1 M1,-1 L-1,1'/>
	<path id='gpPt2' stroke-width='0.148' stroke='currentColor' d='M-1,0 L1,0 M0,-1 L0,1 M-1,-1 L1,1 M-1,1 L1,-1'/>
	<rect id='gpPt3' stroke-width='0.148' stroke='currentColor' x='-1' y='-1' width='2' height='2'/>
	<rect id='gpPt4' stroke-width='0.148' stroke='currentColor' fill='currentColor' x='-1' y='-1' width='2' height='2'/>
	<circle id='gpPt5' stroke-width='0.148' stroke='currentColor' cx='0' cy='0' r='1'/>
	<use xlink:href='#gpPt5' id='gpPt6' fill='currentColor' stroke='none'/>
	<path id='gpPt7' stroke-width='0.148' stroke='currentColor' d='M0,-1.33 L-1.33,0.67 L1.33,0.67 z'/>
	<use xlink:href='#gpPt7' id='gpPt8' fill='currentColor' stroke='none'/>
	<use xlink:href='#gpPt7' id='gpPt9' stroke='currentColor' transform='rotate(180)'/>
	<use xlink:href='#gpPt9' id='gpPt10' fill='currentColor' stroke='none'/>
	<use xlink:href='#gpPt3' id='gpPt11' stroke='currentColor' transform='rotate(45)'/>
	<use xlink:href='#gpPt11' id='gpPt12' fill='currentColor' stroke='none'/>
	<path id='gpPt13' stroke-width='0.148' stroke='currentColor' d='M0,1.330 L1.265,0.411 L0.782,-1.067 L-0.782,-1.076 L-1.265,0.411 z'/>
	<use xlink:href='#gpPt13' id='gpPt14' fill='currentColor' stroke='none'/>
	<filter id='textbox' filterUnits='objectBoundingBox' x='0' y='0' height='1' width='1'>
	  <feFlood flood-color='#FFFFFF' flood-opacity='1' result='bgnd'/>
	  <feComposite in='SourceGraphic' in2='bgnd' operator='atop'/>
	</filter>
	<filter id='greybox' filterUnits='objectBoundingBox' x='0' y='0' height='1' width='1'>
	  <feFlood flood-color='lightgrey' flood-opacity='1' result='grey'/>
	  <feComposite in='SourceGraphic' in2='grey' operator='atop'/>
	</filter>
</defs>
<g fill="none" color="#FFFFFF" stroke="currentColor" stroke-width="1.00" stroke-linecap="butt" stroke-linejoin="miter">
</g>
<g fill="none" color="black" stroke="currentColor" stroke-width="1.00" stroke-linecap="butt" stroke-linejoin="miter">
</g>
<g fill="none" color="black" stroke="black" stroke-width="0.50" stroke-linecap="butt" stroke-linejoin="miter">
</g>
<g fill="none" color="gray" stroke="currentColor" stroke-width="0.50" stroke-linecap="butt" stroke-linejoin="miter">
	<path stroke='gray' stroke-dasharray='2,4' class="gridline"  d='M103.0,482.9 L755.4,482.9  '/></g>
<g fill="none" color="gray" stroke="gray" stroke-width="1.00" stroke-linecap="butt" stroke-linejoin="miter">
</g>
<g fill="none" color="black" stroke="currentColor" stroke-width="1.00" stroke-linecap="butt" stroke-linejoin="miter">
	<path stroke='black'  d='M103.0,482.9 L96.3,482.9 M755.4,482.9 L762.1,482.9  '/>	<g transform="translate(83.7,489.6)" stroke="none" fill="black" font-family="Arial" font-size="18.00"  text-anchor="end">
		<text><tspan font-family="Arial" >-20</tspan></text>
	</g>
</g>
<g fill="none" color="black" stroke="currentColor" stroke-width="1.00" stroke-linecap="butt" stroke-linejoin="miter">
</g>
<g fill="none" color="black" stroke="black" stroke-width="0.50" stroke-linecap="butt" stroke-linejoin="miter">
</g>
<g fill="none" color="gray" stroke="currentColor" stroke-width="0.50" stroke-linecap="butt" stroke-linejoin="miter">
	<path stroke='gray' stroke-dasharray='2,4' class="gridline"  d='M103.0,403.9 L755.4,403.9  '/></g>
<g fill="none" color="gray" stroke="gray" stroke-width="1.00" stroke-linecap="butt" stroke-linejoin="miter">
</g>
<g fill="none" color="black" stroke="currentColor" stroke-width="1.00" stroke-linecap="butt" stroke-linejoin="miter">
	<path stroke='black'  d='M103.0,403.9 L96.3,403.9 M755.4,403.9 L762.1,403.9  '/>	<g transform="translate(83.7,410.6)" stroke="none" fill="black" font-family="Arial" font-size="18.00"  text-anchor="end">
		<text><tspan font-family="Arial" >-15</tspan></text>
	</g>
</g>
<g fill="none" color="black" stroke="currentColor" stroke-width="1.00" stroke-linecap="butt" stroke-linejoin="miter">
</g>
<g fill="none" color="black" stroke="black" stroke-width="0.50" stroke-linecap="butt" stroke-linejoin="miter">
</g>
<g fill="none" color="gray" stroke="currentColor" stroke-width="0.50" stroke-linecap="butt" stroke-linejoin="miter">
	<path stroke='gray' stroke-dasharray='2,4' class="gridline"  d='M103.0,324.9 L755.4,324.9  '/></g>
<g fill="none" color="gray" stroke="gray" stroke-width="1.00" stroke-linecap="butt" stroke-linejoin="miter">
</g>
<g fill="none" color="black" stroke="currentColor" stroke-width="1.00" stroke-linecap="butt" stroke-linejoin="miter">
	<path stroke='black'  d='M103.0,324.9 L96.3,324.9 M755.4,324.9 L762.1,324.9  '/>	<g transform="translate(83.7,331.6)" stroke="none" fill="black" font-family="Arial" font-size="18.00"  text-anchor="end">
		<text><tspan font-family="Arial" >-10</tspan></text>
	</g>
</g>
<g fill="none" color="black" stroke="currentColor" stroke-width="1.00" stroke-linecap="butt" stroke-linejoin="miter">
</g>
<g fill="none" color="black" stroke="black" stroke-width="0.50" stroke-linecap="butt" stroke-linejoin="miter">
</g>
<g fill="none" color="gray" stroke="currentColor" stroke-width="0.50" stroke-linecap="butt" stroke-linejoin="miter">
	<path stroke='gray' stroke-dasharray='2,4' class="gridline"  d='M103.0,245.8 L755.4,245.8  '/></g>
<g fill="none" color="gray" stroke="gray" stroke-width="1.00" stroke-linecap="butt" stroke-linejoin="miter">
</g>
<g fill="none" color="black" stroke="currentColor" stroke-width="1.00" stroke-linecap="butt" stroke-linejoin="miter">
	<path stroke='black'  d='M103.0,245.8 L96.3,245.8 M755.4,245.8 L762.1,245.8  '/>	<g transform="translate(83.7,252.5)" stroke="none" fill="black" font-family="Arial" font-size="18.00"  text-anchor="end">
		<text><tspan font-family="Arial" >-5</tspan></text>
	</g>
</g>
<g fill="none" color="black" stroke="currentColor" stroke-width="1.00" stroke-linecap="butt" stroke-linejoin="miter">
</g>
<g fill="none" color="black" stroke="black" stroke-width="0.50" stroke-linecap="butt" stroke-linejoin="miter">
</g>
<g fill="none" color="gray" stroke="currentColor" stroke-width="0.50" stroke-linecap="butt" stroke-linejoin="miter">
	<path stroke='gray' stroke-dasharray='2,4' class="gridline"  d='M103.0,166.8 L755.4,166.8  '/></g>
<g fill="none" color="gray" stroke="gray" stroke-width="1.00" stroke-linecap="butt" stroke-linejoin="miter">
</g>
<g fill="none" color="black" stroke="currentColor" stroke-width="1.00" stroke-linecap="butt" stroke-linejoin="miter">
	<path stroke='black'  d='M103.0,166.8 L96.3,166.8 M755.4,166.8 L762.1,166.8  '/>	<g transform="translate(83.7,173.5)" stroke="none" fill="black" font-family="Arial" font-size="18.00"  text-anchor="end">
		<text><tspan font-family="Arial" > 0</tspan></text>
	</g>
</g>
<g fill="none" color="black" stroke="currentColor" stroke-width="1.00" stroke-linecap="butt" stroke-linejoin="miter">
</g>
<g fill="none" color="black" stroke="black" stroke-width="0.50" stroke-linecap="butt" stroke-linejoin="miter">
</g>
<g fill="none" color="gray" stroke="currentColor" stroke-width="0.50" stroke-linecap="butt" stroke-linejoin="miter">
	<path stroke='gray' stroke-dasharray='2,4' class="gridline"  d='M103.0,87.8 L755.4,87.8  '/></g>
<g fill="none" color="gray" stroke="gray" stroke-width="1.00" stroke-linecap="butt" stroke-linejoin="miter">
</g>
<g fill="none" color="black" stroke="currentColor" stroke-width="1.00" stroke-linecap="butt" stroke-linejoin="miter">
	<path stroke='black'  d='M103.0,87.8 L96.3,87.8 M755.4,87.8 L762.1,87.8  '/>	<g transform="translate(83.7,94.5)" stroke="none" fill="black" font-family="Arial" font-size="18.00"  text-anchor="end">
		<text><tspan font-family="Arial" > 5</tspan></text>
	</g>
</g>
<g fill="none" color="black" stroke="currentColor" stroke-width="1.00" stroke-linecap="butt" stroke-linejoin="miter">
</g>
<g fill="none" color="black" stroke="black" stroke-width="0.50" stroke-linecap="butt" stroke-linejoin="miter">
</g>
<g fill="none" color="gray" stroke="currentColor" stroke-width="0.50" stroke-linecap="butt" stroke-linejoin="miter">
	<path stroke='gray' stroke-dasharray='2,4' class="gridline"  d='M103.0,482.9 L103.0,87.8  '/></g>
<g fill="none" color="gray" stroke="gray" stroke-width="1.00" stroke-linecap="butt" stroke-linejoin="miter">
</g>
<g fill="none" color="black" stroke="currentColor" stroke-width="1.00" stroke-linecap="butt" stroke-linejoin="miter">
	<path stroke='black'  d='M103.0,482.9 L103.0,489.6 M103.0,87.8 L103.0,81.1  '/>	<g transform="translate(103.0,523.3)" stroke="none" fill="black" font-family="Arial" font-size="18.00"  text-anchor="middle">
		<text><tspan font-family="Arial" > 0</tspan></text>
	</g>
</g>
<g fill="none" color="black" stroke="currentColor" stroke-width="1.00" stroke-linecap="butt" stroke-linejoin="miter">
</g>
<g fill="none" color="black" stroke="black" stroke-width="0.50" stroke-linecap="butt" stroke-linejoin="miter">
</g>
<g fill="none" color="gray" stroke="currentColor" stroke-width="0.50" stroke-linecap="butt" stroke-linejoin="miter">
	<path stroke='gray' stroke-dasharray='2,4' class="gridline"  d='M168.2,482.9 L168.2,87.8  '/></g>
<g fill="none" color="gray" stroke="gray" stroke-width="1.00" stroke-linecap="butt" stroke-linejoin="miter">
</g>
<g fill="none" color="black" stroke="currentColor" stroke-width="1.00" stroke-linecap="butt" stroke-linejoin="miter">
	<path stroke='black'  d='M168.2,482.9 L168.2,489.6 M168.2,87.8 L168.2,81.1  '/>	<g transform="translate(168.2,523.3)" stroke="none" fill="black" font-family="Arial" font-size="18.00"  text-anchor="middle">
		<text><tspan font-family="Arial" > 1</tspan></text>
	</g>
</g>
<g fill="none" color="black" stroke="currentColor" stroke-width="1.00" stroke-linecap="butt" stroke-linejoin="miter">
</g>
<g fill="none" color="black" stroke="black" stroke-width="0.50" stroke-linecap="butt" stroke-linejoin="miter">
</g>
<g fill="none" color="gray" stroke="currentColor" stroke-width="0.50" stroke-linecap="butt" stroke-linejoin="miter">
	<path stroke='gray' stroke-dasharray='2,4' class="gridline"  d='M233.5,482.9 L233.5,87.8  '/></g>
<g fill="none" color="gray" stroke="gray" stroke-width="1.00" stroke-linecap="butt" stroke-linejoin="miter">
</g>
<g fill="none" color="black" stroke="currentColor" stroke-width="1.00" stroke-linecap="butt" stroke-linejoin="miter">
	<path stroke='black'  d='M233.5,482.9 L233.5,489.6 M233.5,87.8 L233.5,81.1  '/>	<g transform="translate(233.5,523.3)" stroke="none" fill="black" font-family="Arial" font-size="18.00"  text-anchor="middle">
		<text><tspan font-family="Arial" > 2</tspan></text>
	</g>
</g>
<g fill="none" color="black" stroke="currentColor" stroke-width="1.00" stroke-linecap="butt" stroke-linejoin="miter">
</g>
<g fill="none" color="black" stroke="black" stroke-width="0.50" stroke-linecap="butt" stroke-linejoin="miter">
</g>
<g fill="none" color="gray" stroke="currentColor" stroke-width="0.50" stroke-linecap="butt" stroke-linejoin="miter">
	<path stroke='gray' stroke-dasharray='2,4' class="gridline"  d='M298.7,482.9 L298.7,87.8  '/></g>
<g fill="none" color="gray" stroke="gray" stroke-width="1.00" stroke-linecap="butt" stroke-linejoin="miter">
</g>
<g fill="none" color="black" stroke="currentColor" stroke-width="1.00" stroke-linecap="butt" stroke-linejoin="miter">
	<path stroke='black'  d='M298.7,482.9 L298.7,489.6 M298.7,87.8 L298.7,81.1  '/>	<g transform="translate(298.7,523.3)" stroke="none" fill="black" font-family="Arial" font-size="18.00"  text-anchor="middle">
		<text><tspan font-family="Arial" > 3</tspan></text>
	</g>
</g>
<g fill="none" color="black" stroke="currentColor" stroke-width="1.00" stroke-linecap="butt" stroke-linejoin="miter">
</g>
<g fill="none" color="black" stroke="black" stroke-width="0.50" stroke-linecap="butt" stroke-linejoin="miter">
</g>
<g fill="none" color="gray" stroke="currentColor" stroke-width="0.50" stroke-linecap="butt" stroke-linejoin="miter">
	<path stroke='gray' stroke-dasharray='2,4' class="gridline"  d='M364.0,482.9 L364.0,87.8  '/></g>
<g fill="none" color="gray" stroke="gray" stroke-width="1.00" stroke-linecap="butt" stroke-linejoin="miter">
</g>
<g fill="none" color="black" stroke="currentColor" stroke-width="1.00" stroke-linecap="butt" stroke-linejoin="miter">
	<path stroke='black'  d='M364.0,482.9 L364.0,489.6 M364.0,87.8 L364.0,81.1  '/>	<g transform="translate(364.0,523.3)" stroke="none" fill="black" font-family="Arial" font-size="18.00"  text-anchor="middle">
		<text><tspan font-family="Arial" > 4</tspan></text>
	</g>
</g>
<g fill="none" color="black" stroke="currentColor" stroke-width="1.00" stroke-linecap="butt" stroke-linejoin="miter">
</g>
<g fill="none" color="black" stroke="black" stroke-width="0.50" stroke-linecap="butt" stroke-linejoin="miter">
</g>
<g fill="none" color="gray" stroke="currentColor" stroke-width="0.50" stroke-linecap="butt" stroke-linejoin="miter">
	<path stroke='gray' stroke-dasharray='2,4' class="gridline"  d='M429.2,482.9 L429.2,87.8  '/></g>
<g fill="none" color="gray" stroke="gray" stroke-width="1.00" stroke-linecap="butt" stroke-linejoin="miter">
</g>
<g fill="none" color="black" stroke="currentColor" stroke-width="1.00" stroke-linecap="butt" stroke-linejoin="miter">
	<path stroke='black'  d='M429.2,482.9 L429.2,489.6 M429.2,87.8 L429.2,81.1  '/>	<g transform="translate(429.2,523.3)" stroke="none" fill="black" font-family="Arial" font-size="18.00"  text-anchor="middle">
		<text><tspan font-family="Arial" > 5</tspan></text>
	</g>
</g>
<g fill="none" color="black" stroke="currentColor" stroke-width="1.00" stroke-linecap="butt" stroke-linejoin="miter">
</g>
<g fill="none" color="black" stroke="black" stroke-width="0.50" stroke-linecap="butt" stroke-linejoin="miter">
</g>
<g fill="none" color="gray" stroke="currentColor" stroke-width="0.50" stroke-linecap="butt" stroke-linejoin="miter">
	<path stroke='gray' stroke-dasharray='2,4' class="gridline"  d='M494.4,482.9 L494.4,87.8  '/></g>
<g fill="none" color="gray" stroke="gray" stroke-width="1.00" stroke-linecap="butt" stroke-linejoin="miter">
</g>
<g fill="none" color="black" stroke="currentColor" stroke-width="1.00" stroke-linecap="butt" stroke-linejoin="miter">
	<path stroke='black'  d='M494.4,482.9 L494.4,489.6 M494.4,87.8 L494.4,81.1  '/>	<g transform="translate(494.4,523.3)" stroke="none" fill="black" font-family="Arial" font-size="18.00"  text-anchor="middle">
		<text><tspan font-family="Arial" > 6</tspan></text>
	</g>
</g>
<g fill="none" color="black" stroke="currentColor" stroke-width="1.00" stroke-linecap="butt" stroke-linejoin="miter">
</g>
<g fill="none" color="black" stroke="black" stroke-width="0.50" stroke-linecap="butt" stroke-linejoin="miter">
</g>
<g fill="none" color="gray" stroke="currentColor" stroke-width="0.50" stroke-linecap="butt" stroke-linejoin="miter">
	<path stroke='gray' stroke-dasharray='2,4' class="gridline"  d='M559.7,482.9 L559.7,87.8  '/></g>
<g fill="none" color="gray" stroke="gray" stroke-width="1.00" stroke-linecap="butt" stroke-linejoin="miter">
</g>
<g fill="none" color="black" stroke="currentColor" stroke-width="1.00" stroke-linecap="butt" stroke-linejoin="miter">
	<path stroke='black'  d='M559.7,482.9 L559.7,489.6 M559.7,87.8 L559.7,81.1  '/>	<g transform="translate(559.7,523.3)" stroke="none" fill="black" font-family="Arial" font-size="18.00"  text-anchor="middle">
		<text><tspan font-family="Arial" > 7</tspan></text>
	</g>
</g>
<g fill="none" color="black" stroke="currentColor" stroke-width="1.00" stroke-linecap="butt" stroke-linejoin="miter">
</g>
<g fill="none" color="black" stroke="black" stroke-width="0.50" stroke-linecap="butt" stroke-linejoin="miter">
</g>
<g fill="none" color="gray" stroke="currentColor" stroke-width="0.50" stroke-linecap="butt" stroke-linejoin="miter">
	<path stroke='gray' stroke-dasharray='2,4' class="gridline"  d='M624.9,482.9 L624.9,87.8  '/></g>
<g fill="none" color="gray" stroke="gray" stroke-width="1.00" stroke-linecap="butt" stroke-linejoin="miter">
</g>
<g fill="none" color="black" stroke="currentColor" stroke-width="1.00" stroke-linecap="butt" stroke-linejoin="miter">
	<path stroke='black'  d='M624.9,482.9 L624.9,489.6 M624.9,87.8 L624.9,81.1  '/>	<g transform="translate(624.9,523.3)" stroke="none" fill="black" font-family="Arial" font-size="18.00"  text-anchor="middle">
		<text><tspan font-family="Arial" > 8</tspan></text>
	</g>
</g>
<g fill="none" color="black" stroke="currentColor" stroke-width="1.00" stroke-linecap="butt" stroke-linejoin="miter">
</g>
<g fill="none" color="black" stroke="black" stroke-width="0.50" stroke-linecap="butt" stroke-linejoin="miter">
</g>
<g fill="none" color="gray" stroke="currentColor" stroke-width="0.50" stroke-linecap="butt" stroke-linejoin="miter">
	<path stroke='gray' stroke-dasharray='2,4' class="gridline"  d='M690.2,482.9 L690.2,87.8  '/></g>
<g fill="none" color="gray" stroke="gray" stroke-width="1.00" stroke-linecap="butt" stroke-linejoin="miter">
</g>
<g fill="none" color="black" stroke="currentColor" stroke-width="1.00" stroke-linecap="butt" stroke-linejoin="miter">
	<path stroke='black'  d='M690.2,482.9 L690.2,489.6 M690.2,87.8 L690.2,81.1  '/>	<g transform="translate(690.2,523.3)" stroke="none" fill="black" font-family="Arial" font-size="18.00"  text-anchor="middle">
		<text><tspan font-family="Arial" > 9</tspan></text>
	</g>
</g>
<g fill="none" color="black" stroke="currentColor" stroke-width="1.00" stroke-linecap="butt" stroke-linejoin="miter">
</g>
<g fill="none" color="black" stroke="black" stroke-width="0.50" stroke-linecap="butt" stroke-linejoin="miter">
</g>
<g fill="none" color="gray" stroke="currentColor" stroke-width="0.50" stroke-linecap="butt" stroke-linejoin="miter">
	<path stroke='gray' stroke-dasharray='2,4' class="gridline"  d='M755.4,482.9 L755.4,87.8  '/></g>
<g fill="none" color="gray" stroke="gray" stroke-width="1.00" stroke-linecap="butt" stroke-linejoin="miter">
</g>
<g fill="none" color="black" stroke="currentColor" stroke-width="1.00" stroke-linecap="butt" stroke-linejoin="miter">
	<path stroke='black'  d='M755.4,482.9 L755.4,489.6 M755.4,87.8 L755.4,81.1  '/>	<g transform="translate(755.4,523.3)" stroke="none" fill="black" font-family="Arial" font-size="18.00"  text-anchor="middle">
		<text><tspan font-family="Arial" > 10</tspan></text>
	</g>
</g>
<g fill="none" color="black" stroke="currentColor" stroke-width="1.00" stroke-linecap="butt" stroke-linejoin="miter">
</g>
<g fill="none" color="black" stroke="currentColor" stroke-width="1.00" stroke-linecap="butt" stroke-linejoin="miter">
	<path stroke='black'  d='M103.0,87.8 L103.0,482.9 L755.4,482.9 L755.4,87.8 L103.0,87.8 Z  '/></g>
<g fill="none" color="black" stroke="currentColor" stroke-width="1.00" stroke-linecap="butt" stroke-linejoin="miter">
	<g transform="translate(26.5,285.4) rotate(270)" stroke="none" fill="black" font-family="Arial" font-size="18.00"  text-anchor="middle">
		<text><tspan font-family="Arial" >y</tspan></text>
	</g>
</g>
<g fill="none" color="black" stroke="currentColor" stroke-width="1.00" stroke-linecap="butt" stroke-linejoin="miter">
	<g transform="translate(429.2,563.8)" stroke="none" fill="black" font-family="Arial" font-size="18.00"  text-anchor="middle">
		<text><tspan font-family="Arial" >x</tspan></text>
	</g>
</g>
<g fill="none" color="black" stroke="currentColor" stroke-width="1.00" stroke-linecap="butt" stroke-linejoin="miter">
	<g transform="translate(429.2,47.3)" stroke="none" fill="black" font-family="Arial" font-size="18.00"  text-anchor="middle">
		<text><tspan font-family="Arial" >Least squares fit via single value decomposition</tspan></text>
	</g>
</g>
	<g id="gnuplot_plot_1" ><title>Data</title>
<g fill="none" color="black" stroke="currentColor" stroke-width="1.00" stroke-linecap="butt" stroke-linejoin="miter">
	<g transform="translate(348.5,580.5)" stroke="none" fill="black" font-family="Arial" font-size="16.00"  text-anchor="end">
		<text><tspan font-family="Arial" >Data</tspan></text>
	</g>
</g>
<g fill="none" color="black" stroke="currentColor" stroke-width="1.00" stroke-linecap="butt" stroke-linejoin="miter">
	<path stroke='rgb(  0,   0,   0)'  d='M359.7,574.5 L418.0,574.5 M359.7,567.8 L359.7,581.2 M418.0,567.8 L418.0,581.2 M109.5,425.1 L109.5,392.2
		M103.0,425.1 L116.2,425.1 M103.0,392.2 L116.2,392.2 M189.8,171.2 L189.8,152.4 M183.1,171.2 L196.5,171.2
		M183.1,152.4 L196.5,152.4 M269.4,143.6 L269.4,112.6 M262.7,143.6 L276.1,143.6 M262.7,112.6 L276.1,112.6
		M349.6,139.1 L349.6,107.6 M342.9,139.1 L356.3,139.1 M342.9,107.6 L356.3,107.6 M429.2,148.5 L429.2,113.4
		M422.5,148.5 L435.9,148.5 M422.5,113.4 L435.9,113.4 M508.8,151.8 L508.8,139.2 M502.1,151.8 L515.5,151.8
		M502.1,139.2 L515.5,139.2 M589.0,172.8 L589.0,155.9 M582.3,172.8 L595.7,172.8 M582.3,155.9 L595.7,155.9
		M669.3,201.6 L669.3,171.0 M662.6,201.6 L676.0,201.6 M662.6,171.0 L676.0,171.0 M748.9,217.8 L748.9,202.7
		M742.2,217.8 L755.4,217.8 M742.2,202.7 L755.4,202.7  '/>	<use xlink:href='#gpPt0' transform='translate(109.5,408.6) scale(6.75)' color='rgb(  0,   0,   0)'/>
	<use xlink:href='#gpPt0' transform='translate(189.8,161.8) scale(6.75)' color='rgb(  0,   0,   0)'/>
	<use xlink:href='#gpPt0' transform='translate(269.4,128.1) scale(6.75)' color='rgb(  0,   0,   0)'/>
	<use xlink:href='#gpPt0' transform='translate(349.6,123.4) scale(6.75)' color='rgb(  0,   0,   0)'/>
	<use xlink:href='#gpPt0' transform='translate(429.2,130.9) scale(6.75)' color='rgb(  0,   0,   0)'/>
	<use xlink:href='#gpPt0' transform='translate(508.8,145.5) scale(6.75)' color='rgb(  0,   0,   0)'/>
	<use xlink:href='#gpPt0' transform='translate(589.0,164.3) scale(6.75)' color='rgb(  0,   0,   0)'/>
	<use xlink:href='#gpPt0' transform='translate(669.3,186.3) scale(6.75)' color='rgb(  0,   0,   0)'/>
	<use xlink:href='#gpPt0' transform='translate(748.9,210.3) scale(6.75)' color='rgb(  0,   0,   0)'/>
	<use xlink:href='#gpPt0' transform='translate(388.8,574.5) scale(6.75)' color='rgb(  0,   0,   0)'/>
</g>
	</g>
	<g id="gnuplot_plot_2" ><title>F(x) = c0 log(x) + c1 + c2x</title>
<g fill="none" color="#FFFFFF" stroke="rgb(  0,   0,   0)" stroke-width="3.00" stroke-linecap="butt" stroke-linejoin="miter">
</g>
<g fill="none" color="black" stroke="currentColor" stroke-width="3.00" stroke-linecap="butt" stroke-linejoin="miter">
	<g transform="translate(720.4,580.5)" stroke="none" fill="black" font-family="Arial" font-size="16.00"  text-anchor="end">
		<text><tspan font-family="Arial" >F(x) = c</tspan><tspan font-family="Arial"  font-size="12.8" dy="4.80px">0</tspan><tspan font-family="Arial"  font-size="16.0" dy="-4.80px"> log(x) + c</tspan><tspan font-family="Arial"  font-size="12.8" dy="4.80px">1</tspan><tspan font-family="Arial"  font-size="16.0" dy="-4.80px"> + c</tspan><tspan font-family="Arial"  font-size="12.8" dy="4.80px">2</tspan><tspan font-family="Arial"  font-size="16.0" dy="-4.80px">x</tspan></text>
	</g>
</g>
<g fill="none" color="black" stroke="currentColor" stroke-width="3.00" stroke-linecap="butt" stroke-linejoin="miter">
	<path stroke='rgb(  0, 158, 115)'  d='M731.6,574.5 L789.9,574.5 M109.5,408.6 L116.0,335.9 L122.4,294.4 L128.9,265.8 L135.4,244.3 L141.8,227.3
		L148.3,213.4 L154.7,201.7 L161.2,191.9 L167.7,183.4 L174.1,176.0 L180.6,169.6 L187.2,163.8 L193.7,158.8
		L200.2,154.3 L206.1,150.2 L212.6,146.7 L219.1,143.6 L225.7,140.7 L232.2,138.2 L238.7,135.8 L245.2,133.9
		L251.7,132.1 L258.3,130.5 L264.8,129.0 L270.7,127.9 L277.2,126.8 L283.7,126.0 L290.2,125.3 L296.8,124.6
		L303.3,124.1 L309.8,123.7 L316.3,123.5 L322.9,123.2 L329.4,123.2 L335.3,123.2 L341.8,123.4 L348.3,123.5
		L354.8,123.7 L361.4,124.0 L367.9,124.5 L374.4,124.9 L380.9,125.4 L387.4,126.0 L394.0,126.7 L399.8,127.3
		L406.4,128.1 L412.9,128.9 L419.4,129.7 L425.9,130.6 L432.5,131.6 L439.0,132.5 L445.5,133.6 L452.0,134.6
		L458.6,135.7 L464.4,136.8 L471.0,138.1 L477.5,139.2 L484.0,140.4 L490.5,141.7 L497.0,143.1 L503.6,144.4
		L510.1,145.8 L516.6,147.1 L523.1,148.5 L529.0,149.9 L535.5,151.4 L542.1,152.9 L548.6,154.4 L555.1,155.9
		L561.6,157.5 L568.2,159.1 L574.7,160.7 L581.2,162.3 L587.7,163.9 L593.6,165.6 L600.1,167.3 L606.7,169.0
		L613.2,170.7 L619.7,172.4 L626.2,174.2 L632.7,176.0 L639.3,177.7 L645.8,179.5 L652.3,181.3 L658.2,183.3
		L664.7,185.0 L671.2,186.9 L677.8,188.8 L684.3,190.7 L690.8,192.6 L697.3,194.5 L703.9,196.4 L710.4,198.3
		L716.9,200.3 L722.8,202.2 L729.3,204.3 L735.8,206.2 L742.4,208.2 L748.9,210.3  '/></g>
	</g>
<g fill="none" color="#FFFFFF" stroke="rgb(  0, 158, 115)" stroke-width="2.00" stroke-linecap="butt" stroke-linejoin="miter">
</g>
<g fill="none" color="black" stroke="currentColor" stroke-width="2.00" stroke-linecap="butt" stroke-linejoin="miter">
</g>
<g fill="none" color="black" stroke="black" stroke-width="1.00" stroke-linecap="butt" stroke-linejoin="miter">
</g>
<g fill="none" color="black" stroke="currentColor" stroke-width="1.00" stroke-linecap="butt" stroke-linejoin="miter">
	<path stroke='black'  d='M103.0,87.8 L103.0,482.9 L755.4,482.9 L755.4,87.8 L103.0,87.8 Z  '/></g>
<g fill="none" color="black" stroke="currentColor" stroke-width="1.00" stroke-linecap="butt" stroke-linejoin="miter">
</g>
</g>
</svg>

