<?xml version="1.0" encoding="utf-8"  standalone="no"?>
<!DOCTYPE svg PUBLIC "-//W3C//DTD SVG 1.1//EN"
 "http://www.w3.org/Graphics/SVG/1.1/DTD/svg11.dtd">
<svg 
 width="800" height="600"
 viewBox="0 0 800 600"
 xmlns="http://www.w3.org/2000/svg"
 xmlns:xlink="http://www.w3.org/1999/xlink"
>

<title>Gnuplot</title>
<desc>Produced by GNUPLOT 5.0 patchlevel 3 </desc>

<g id="gnuplot_canvas">

<rect x="0" y="0" width="800" height="600" fill="#ffffff"/>
<defs>

	<circle id='gpDot' r='0.5' stroke-width='0.5'/>
	<path id='gpPt0' stroke-width='0.148' stroke='currentColor' d='M-1,0 h2 M0,-1 v2'/>
	<path id='gpPt1' stroke-width='0.148' stroke='currentColor' d='M-1,-1 L1,1 M1,-1 L-1,1'/>
	<path id='gpPt2' stroke-width='0.148' stroke='currentColor' d='M-1,0 L1,0 M0,-1 L0,1 M-1,-1 L1,1 M-1,1 L1,-1'/>
	<rect id='gpPt3' stroke-width='0.148' stroke='currentColor' x='-1' y='-1' width='2' height='2'/>
	<rect id='gpPt4' stroke-width='0.148' stroke='currentColor' fill='currentColor' x='-1' y='-1' width='2' height='2'/>
	<circle id='gpPt5' stroke-width='0.148' stroke='currentColor' cx='0' cy='0' r='1'/>
	<use xlink:href='#gpPt5' id='gpPt6' fill='currentColor' stroke='none'/>
	<path id='gpPt7' stroke-width='0.148' stroke='currentColor' d='M0,-1.33 L-1.33,0.67 L1.33,0.67 z'/>
	<use xlink:href='#gpPt7' id='gpPt8' fill='currentColor' stroke='none'/>
	<use xlink:href='#gpPt7' id='gpPt9' stroke='currentColor' transform='rotate(180)'/>
	<use xlink:href='#gpPt9' id='gpPt10' fill='currentColor' stroke='none'/>
	<use xlink:href='#gpPt3' id='gpPt11' stroke='currentColor' transform='rotate(45)'/>
	<use xlink:href='#gpPt11' id='gpPt12' fill='currentColor' stroke='none'/>
	<path id='gpPt13' stroke-width='0.148' stroke='currentColor' d='M0,1.330 L1.265,0.411 L0.782,-1.067 L-0.782,-1.076 L-1.265,0.411 z'/>
	<use xlink:href='#gpPt13' id='gpPt14' fill='currentColor' stroke='none'/>
	<filter id='textbox' filterUnits='objectBoundingBox' x='0' y='0' height='1' width='1'>
	  <feFlood flood-color='#FFFFFF' flood-opacity='1' result='bgnd'/>
	  <feComposite in='SourceGraphic' in2='bgnd' operator='atop'/>
	</filter>
	<filter id='greybox' filterUnits='objectBoundingBox' x='0' y='0' height='1' width='1'>
	  <feFlood flood-color='lightgrey' flood-opacity='1' result='grey'/>
	  <feComposite in='SourceGraphic' in2='grey' operator='atop'/>
	</filter>
</defs>
<g fill="none" color="#FFFFFF" stroke="currentColor" stroke-width="1.00" stroke-linecap="butt" stroke-linejoin="miter">
</g>
<g fill="none" color="black" stroke="currentColor" stroke-width="1.00" stroke-linecap="butt" stroke-linejoin="miter">
</g>
<g fill="none" color="black" stroke="black" stroke-width="0.50" stroke-linecap="butt" stroke-linejoin="miter">
</g>
<g fill="none" color="gray" stroke="currentColor" stroke-width="0.50" stroke-linecap="butt" stroke-linejoin="miter">
	<path stroke='gray' stroke-dasharray='2,4' class="gridline"  d='M128.2,458.9 L755.4,458.9  '/></g>
<g fill="none" color="gray" stroke="gray" stroke-width="1.00" stroke-linecap="butt" stroke-linejoin="miter">
</g>
<g fill="none" color="black" stroke="currentColor" stroke-width="1.00" stroke-linecap="butt" stroke-linejoin="miter">
	<path stroke='black'  d='M128.2,458.9 L121.5,458.9 M755.4,458.9 L762.1,458.9  '/>	<g transform="translate(108.9,465.6)" stroke="none" fill="black" font-family="Arial" font-size="18.00"  text-anchor="end">
		<text><tspan font-family="Arial" > 0.5</tspan></text>
	</g>
</g>
<g fill="none" color="black" stroke="currentColor" stroke-width="1.00" stroke-linecap="butt" stroke-linejoin="miter">
</g>
<g fill="none" color="black" stroke="black" stroke-width="0.50" stroke-linecap="butt" stroke-linejoin="miter">
</g>
<g fill="none" color="gray" stroke="currentColor" stroke-width="0.50" stroke-linecap="butt" stroke-linejoin="miter">
	<path stroke='gray' stroke-dasharray='2,4' class="gridline"  d='M128.2,421.8 L755.4,421.8  '/></g>
<g fill="none" color="gray" stroke="gray" stroke-width="1.00" stroke-linecap="butt" stroke-linejoin="miter">
</g>
<g fill="none" color="black" stroke="currentColor" stroke-width="1.00" stroke-linecap="butt" stroke-linejoin="miter">
	<path stroke='black'  d='M128.2,421.8 L121.5,421.8 M755.4,421.8 L762.1,421.8  '/>	<g transform="translate(108.9,428.5)" stroke="none" fill="black" font-family="Arial" font-size="18.00"  text-anchor="end">
		<text><tspan font-family="Arial" > 0.55</tspan></text>
	</g>
</g>
<g fill="none" color="black" stroke="currentColor" stroke-width="1.00" stroke-linecap="butt" stroke-linejoin="miter">
</g>
<g fill="none" color="black" stroke="black" stroke-width="0.50" stroke-linecap="butt" stroke-linejoin="miter">
</g>
<g fill="none" color="gray" stroke="currentColor" stroke-width="0.50" stroke-linecap="butt" stroke-linejoin="miter">
	<path stroke='gray' stroke-dasharray='2,4' class="gridline"  d='M128.2,384.7 L755.4,384.7  '/></g>
<g fill="none" color="gray" stroke="gray" stroke-width="1.00" stroke-linecap="butt" stroke-linejoin="miter">
</g>
<g fill="none" color="black" stroke="currentColor" stroke-width="1.00" stroke-linecap="butt" stroke-linejoin="miter">
	<path stroke='black'  d='M128.2,384.7 L121.5,384.7 M755.4,384.7 L762.1,384.7  '/>	<g transform="translate(108.9,391.4)" stroke="none" fill="black" font-family="Arial" font-size="18.00"  text-anchor="end">
		<text><tspan font-family="Arial" > 0.6</tspan></text>
	</g>
</g>
<g fill="none" color="black" stroke="currentColor" stroke-width="1.00" stroke-linecap="butt" stroke-linejoin="miter">
</g>
<g fill="none" color="black" stroke="black" stroke-width="0.50" stroke-linecap="butt" stroke-linejoin="miter">
</g>
<g fill="none" color="gray" stroke="currentColor" stroke-width="0.50" stroke-linecap="butt" stroke-linejoin="miter">
	<path stroke='gray' stroke-dasharray='2,4' class="gridline"  d='M128.2,347.6 L755.4,347.6  '/></g>
<g fill="none" color="gray" stroke="gray" stroke-width="1.00" stroke-linecap="butt" stroke-linejoin="miter">
</g>
<g fill="none" color="black" stroke="currentColor" stroke-width="1.00" stroke-linecap="butt" stroke-linejoin="miter">
	<path stroke='black'  d='M128.2,347.6 L121.5,347.6 M755.4,347.6 L762.1,347.6  '/>	<g transform="translate(108.9,354.3)" stroke="none" fill="black" font-family="Arial" font-size="18.00"  text-anchor="end">
		<text><tspan font-family="Arial" > 0.65</tspan></text>
	</g>
</g>
<g fill="none" color="black" stroke="currentColor" stroke-width="1.00" stroke-linecap="butt" stroke-linejoin="miter">
</g>
<g fill="none" color="black" stroke="black" stroke-width="0.50" stroke-linecap="butt" stroke-linejoin="miter">
</g>
<g fill="none" color="gray" stroke="currentColor" stroke-width="0.50" stroke-linecap="butt" stroke-linejoin="miter">
	<path stroke='gray' stroke-dasharray='2,4' class="gridline"  d='M128.2,310.5 L755.4,310.5  '/></g>
<g fill="none" color="gray" stroke="gray" stroke-width="1.00" stroke-linecap="butt" stroke-linejoin="miter">
</g>
<g fill="none" color="black" stroke="currentColor" stroke-width="1.00" stroke-linecap="butt" stroke-linejoin="miter">
	<path stroke='black'  d='M128.2,310.5 L121.5,310.5 M755.4,310.5 L762.1,310.5  '/>	<g transform="translate(108.9,317.2)" stroke="none" fill="black" font-family="Arial" font-size="18.00"  text-anchor="end">
		<text><tspan font-family="Arial" > 0.7</tspan></text>
	</g>
</g>
<g fill="none" color="black" stroke="currentColor" stroke-width="1.00" stroke-linecap="butt" stroke-linejoin="miter">
</g>
<g fill="none" color="black" stroke="black" stroke-width="0.50" stroke-linecap="butt" stroke-linejoin="miter">
</g>
<g fill="none" color="gray" stroke="currentColor" stroke-width="0.50" stroke-linecap="butt" stroke-linejoin="miter">
	<path stroke='gray' stroke-dasharray='2,4' class="gridline"  d='M128.2,273.3 L755.4,273.3  '/></g>
<g fill="none" color="gray" stroke="gray" stroke-width="1.00" stroke-linecap="butt" stroke-linejoin="miter">
</g>
<g fill="none" color="black" stroke="currentColor" stroke-width="1.00" stroke-linecap="butt" stroke-linejoin="miter">
	<path stroke='black'  d='M128.2,273.3 L121.5,273.3 M755.4,273.3 L762.1,273.3  '/>	<g transform="translate(108.9,280.0)" stroke="none" fill="black" font-family="Arial" font-size="18.00"  text-anchor="end">
		<text><tspan font-family="Arial" > 0.75</tspan></text>
	</g>
</g>
<g fill="none" color="black" stroke="currentColor" stroke-width="1.00" stroke-linecap="butt" stroke-linejoin="miter">
</g>
<g fill="none" color="black" stroke="black" stroke-width="0.50" stroke-linecap="butt" stroke-linejoin="miter">
</g>
<g fill="none" color="gray" stroke="currentColor" stroke-width="0.50" stroke-linecap="butt" stroke-linejoin="miter">
	<path stroke='gray' stroke-dasharray='2,4' class="gridline"  d='M128.2,236.2 L755.4,236.2  '/></g>
<g fill="none" color="gray" stroke="gray" stroke-width="1.00" stroke-linecap="butt" stroke-linejoin="miter">
</g>
<g fill="none" color="black" stroke="currentColor" stroke-width="1.00" stroke-linecap="butt" stroke-linejoin="miter">
	<path stroke='black'  d='M128.2,236.2 L121.5,236.2 M755.4,236.2 L762.1,236.2  '/>	<g transform="translate(108.9,242.9)" stroke="none" fill="black" font-family="Arial" font-size="18.00"  text-anchor="end">
		<text><tspan font-family="Arial" > 0.8</tspan></text>
	</g>
</g>
<g fill="none" color="black" stroke="currentColor" stroke-width="1.00" stroke-linecap="butt" stroke-linejoin="miter">
</g>
<g fill="none" color="black" stroke="black" stroke-width="0.50" stroke-linecap="butt" stroke-linejoin="miter">
</g>
<g fill="none" color="gray" stroke="currentColor" stroke-width="0.50" stroke-linecap="butt" stroke-linejoin="miter">
	<path stroke='gray' stroke-dasharray='2,4' class="gridline"  d='M128.2,199.1 L755.4,199.1  '/></g>
<g fill="none" color="gray" stroke="gray" stroke-width="1.00" stroke-linecap="butt" stroke-linejoin="miter">
</g>
<g fill="none" color="black" stroke="currentColor" stroke-width="1.00" stroke-linecap="butt" stroke-linejoin="miter">
	<path stroke='black'  d='M128.2,199.1 L121.5,199.1 M755.4,199.1 L762.1,199.1  '/>	<g transform="translate(108.9,205.8)" stroke="none" fill="black" font-family="Arial" font-size="18.00"  text-anchor="end">
		<text><tspan font-family="Arial" > 0.85</tspan></text>
	</g>
</g>
<g fill="none" color="black" stroke="currentColor" stroke-width="1.00" stroke-linecap="butt" stroke-linejoin="miter">
</g>
<g fill="none" color="black" stroke="black" stroke-width="0.50" stroke-linecap="butt" stroke-linejoin="miter">
</g>
<g fill="none" color="gray" stroke="currentColor" stroke-width="0.50" stroke-linecap="butt" stroke-linejoin="miter">
	<path stroke='gray' stroke-dasharray='2,4' class="gridline"  d='M128.2,162.0 L755.4,162.0  '/></g>
<g fill="none" color="gray" stroke="gray" stroke-width="1.00" stroke-linecap="butt" stroke-linejoin="miter">
</g>
<g fill="none" color="black" stroke="currentColor" stroke-width="1.00" stroke-linecap="butt" stroke-linejoin="miter">
	<path stroke='black'  d='M128.2,162.0 L121.5,162.0 M755.4,162.0 L762.1,162.0  '/>	<g transform="translate(108.9,168.7)" stroke="none" fill="black" font-family="Arial" font-size="18.00"  text-anchor="end">
		<text><tspan font-family="Arial" > 0.9</tspan></text>
	</g>
</g>
<g fill="none" color="black" stroke="currentColor" stroke-width="1.00" stroke-linecap="butt" stroke-linejoin="miter">
</g>
<g fill="none" color="black" stroke="black" stroke-width="0.50" stroke-linecap="butt" stroke-linejoin="miter">
</g>
<g fill="none" color="gray" stroke="currentColor" stroke-width="0.50" stroke-linecap="butt" stroke-linejoin="miter">
	<path stroke='gray' stroke-dasharray='2,4' class="gridline"  d='M128.2,124.9 L755.4,124.9  '/></g>
<g fill="none" color="gray" stroke="gray" stroke-width="1.00" stroke-linecap="butt" stroke-linejoin="miter">
</g>
<g fill="none" color="black" stroke="currentColor" stroke-width="1.00" stroke-linecap="butt" stroke-linejoin="miter">
	<path stroke='black'  d='M128.2,124.9 L121.5,124.9 M755.4,124.9 L762.1,124.9  '/>	<g transform="translate(108.9,131.6)" stroke="none" fill="black" font-family="Arial" font-size="18.00"  text-anchor="end">
		<text><tspan font-family="Arial" > 0.95</tspan></text>
	</g>
</g>
<g fill="none" color="black" stroke="currentColor" stroke-width="1.00" stroke-linecap="butt" stroke-linejoin="miter">
</g>
<g fill="none" color="black" stroke="black" stroke-width="0.50" stroke-linecap="butt" stroke-linejoin="miter">
</g>
<g fill="none" color="gray" stroke="currentColor" stroke-width="0.50" stroke-linecap="butt" stroke-linejoin="miter">
	<path stroke='gray' stroke-dasharray='2,4' class="gridline"  d='M128.2,87.8 L755.4,87.8  '/></g>
<g fill="none" color="gray" stroke="gray" stroke-width="1.00" stroke-linecap="butt" stroke-linejoin="miter">
</g>
<g fill="none" color="black" stroke="currentColor" stroke-width="1.00" stroke-linecap="butt" stroke-linejoin="miter">
	<path stroke='black'  d='M128.2,87.8 L121.5,87.8 M755.4,87.8 L762.1,87.8  '/>	<g transform="translate(108.9,94.5)" stroke="none" fill="black" font-family="Arial" font-size="18.00"  text-anchor="end">
		<text><tspan font-family="Arial" > 1</tspan></text>
	</g>
</g>
<g fill="none" color="black" stroke="currentColor" stroke-width="1.00" stroke-linecap="butt" stroke-linejoin="miter">
</g>
<g fill="none" color="black" stroke="black" stroke-width="0.50" stroke-linecap="butt" stroke-linejoin="miter">
</g>
<g fill="none" color="gray" stroke="currentColor" stroke-width="0.50" stroke-linecap="butt" stroke-linejoin="miter">
	<path stroke='gray' stroke-dasharray='2,4' class="gridline"  d='M128.2,458.9 L128.2,87.8  '/></g>
<g fill="none" color="gray" stroke="gray" stroke-width="1.00" stroke-linecap="butt" stroke-linejoin="miter">
</g>
<g fill="none" color="black" stroke="currentColor" stroke-width="1.00" stroke-linecap="butt" stroke-linejoin="miter">
	<path stroke='black'  d='M128.2,458.9 L128.2,465.6 M128.2,87.8 L128.2,81.1  '/>	<g transform="translate(128.2,499.3)" stroke="none" fill="black" font-family="Arial" font-size="18.00"  text-anchor="middle">
		<text><tspan font-family="Arial" > 0</tspan></text>
	</g>
</g>
<g fill="none" color="black" stroke="currentColor" stroke-width="1.00" stroke-linecap="butt" stroke-linejoin="miter">
</g>
<g fill="none" color="black" stroke="black" stroke-width="0.50" stroke-linecap="butt" stroke-linejoin="miter">
</g>
<g fill="none" color="gray" stroke="currentColor" stroke-width="0.50" stroke-linecap="butt" stroke-linejoin="miter">
	<path stroke='gray' stroke-dasharray='2,4' class="gridline"  d='M232.7,458.9 L232.7,87.8  '/></g>
<g fill="none" color="gray" stroke="gray" stroke-width="1.00" stroke-linecap="butt" stroke-linejoin="miter">
</g>
<g fill="none" color="black" stroke="currentColor" stroke-width="1.00" stroke-linecap="butt" stroke-linejoin="miter">
	<path stroke='black'  d='M232.7,458.9 L232.7,465.6 M232.7,87.8 L232.7,81.1  '/>	<g transform="translate(232.7,499.3)" stroke="none" fill="black" font-family="Arial" font-size="18.00"  text-anchor="middle">
		<text><tspan font-family="Arial" > 0.5</tspan></text>
	</g>
</g>
<g fill="none" color="black" stroke="currentColor" stroke-width="1.00" stroke-linecap="butt" stroke-linejoin="miter">
</g>
<g fill="none" color="black" stroke="black" stroke-width="0.50" stroke-linecap="butt" stroke-linejoin="miter">
</g>
<g fill="none" color="gray" stroke="currentColor" stroke-width="0.50" stroke-linecap="butt" stroke-linejoin="miter">
	<path stroke='gray' stroke-dasharray='2,4' class="gridline"  d='M337.3,458.9 L337.3,87.8  '/></g>
<g fill="none" color="gray" stroke="gray" stroke-width="1.00" stroke-linecap="butt" stroke-linejoin="miter">
</g>
<g fill="none" color="black" stroke="currentColor" stroke-width="1.00" stroke-linecap="butt" stroke-linejoin="miter">
	<path stroke='black'  d='M337.3,458.9 L337.3,465.6 M337.3,87.8 L337.3,81.1  '/>	<g transform="translate(337.3,499.3)" stroke="none" fill="black" font-family="Arial" font-size="18.00"  text-anchor="middle">
		<text><tspan font-family="Arial" > 1</tspan></text>
	</g>
</g>
<g fill="none" color="black" stroke="currentColor" stroke-width="1.00" stroke-linecap="butt" stroke-linejoin="miter">
</g>
<g fill="none" color="black" stroke="black" stroke-width="0.50" stroke-linecap="butt" stroke-linejoin="miter">
</g>
<g fill="none" color="gray" stroke="currentColor" stroke-width="0.50" stroke-linecap="butt" stroke-linejoin="miter">
	<path stroke='gray' stroke-dasharray='2,4' class="gridline"  d='M441.8,458.9 L441.8,87.8  '/></g>
<g fill="none" color="gray" stroke="gray" stroke-width="1.00" stroke-linecap="butt" stroke-linejoin="miter">
</g>
<g fill="none" color="black" stroke="currentColor" stroke-width="1.00" stroke-linecap="butt" stroke-linejoin="miter">
	<path stroke='black'  d='M441.8,458.9 L441.8,465.6 M441.8,87.8 L441.8,81.1  '/>	<g transform="translate(441.8,499.3)" stroke="none" fill="black" font-family="Arial" font-size="18.00"  text-anchor="middle">
		<text><tspan font-family="Arial" > 1.5</tspan></text>
	</g>
</g>
<g fill="none" color="black" stroke="currentColor" stroke-width="1.00" stroke-linecap="butt" stroke-linejoin="miter">
</g>
<g fill="none" color="black" stroke="black" stroke-width="0.50" stroke-linecap="butt" stroke-linejoin="miter">
</g>
<g fill="none" color="gray" stroke="currentColor" stroke-width="0.50" stroke-linecap="butt" stroke-linejoin="miter">
	<path stroke='gray' stroke-dasharray='2,4' class="gridline"  d='M546.3,458.9 L546.3,87.8  '/></g>
<g fill="none" color="gray" stroke="gray" stroke-width="1.00" stroke-linecap="butt" stroke-linejoin="miter">
</g>
<g fill="none" color="black" stroke="currentColor" stroke-width="1.00" stroke-linecap="butt" stroke-linejoin="miter">
	<path stroke='black'  d='M546.3,458.9 L546.3,465.6 M546.3,87.8 L546.3,81.1  '/>	<g transform="translate(546.3,499.3)" stroke="none" fill="black" font-family="Arial" font-size="18.00"  text-anchor="middle">
		<text><tspan font-family="Arial" > 2</tspan></text>
	</g>
</g>
<g fill="none" color="black" stroke="currentColor" stroke-width="1.00" stroke-linecap="butt" stroke-linejoin="miter">
</g>
<g fill="none" color="black" stroke="black" stroke-width="0.50" stroke-linecap="butt" stroke-linejoin="miter">
</g>
<g fill="none" color="gray" stroke="currentColor" stroke-width="0.50" stroke-linecap="butt" stroke-linejoin="miter">
	<path stroke='gray' stroke-dasharray='2,4' class="gridline"  d='M650.9,458.9 L650.9,87.8  '/></g>
<g fill="none" color="gray" stroke="gray" stroke-width="1.00" stroke-linecap="butt" stroke-linejoin="miter">
</g>
<g fill="none" color="black" stroke="currentColor" stroke-width="1.00" stroke-linecap="butt" stroke-linejoin="miter">
	<path stroke='black'  d='M650.9,458.9 L650.9,465.6 M650.9,87.8 L650.9,81.1  '/>	<g transform="translate(650.9,499.3)" stroke="none" fill="black" font-family="Arial" font-size="18.00"  text-anchor="middle">
		<text><tspan font-family="Arial" > 2.5</tspan></text>
	</g>
</g>
<g fill="none" color="black" stroke="currentColor" stroke-width="1.00" stroke-linecap="butt" stroke-linejoin="miter">
</g>
<g fill="none" color="black" stroke="black" stroke-width="0.50" stroke-linecap="butt" stroke-linejoin="miter">
</g>
<g fill="none" color="gray" stroke="currentColor" stroke-width="0.50" stroke-linecap="butt" stroke-linejoin="miter">
	<path stroke='gray' stroke-dasharray='2,4' class="gridline"  d='M755.4,458.9 L755.4,87.8  '/></g>
<g fill="none" color="gray" stroke="gray" stroke-width="1.00" stroke-linecap="butt" stroke-linejoin="miter">
</g>
<g fill="none" color="black" stroke="currentColor" stroke-width="1.00" stroke-linecap="butt" stroke-linejoin="miter">
	<path stroke='black'  d='M755.4,458.9 L755.4,465.6 M755.4,87.8 L755.4,81.1  '/>	<g transform="translate(755.4,499.3)" stroke="none" fill="black" font-family="Arial" font-size="18.00"  text-anchor="middle">
		<text><tspan font-family="Arial" > 3</tspan></text>
	</g>
</g>
<g fill="none" color="black" stroke="currentColor" stroke-width="1.00" stroke-linecap="butt" stroke-linejoin="miter">
</g>
<g fill="none" color="black" stroke="currentColor" stroke-width="1.00" stroke-linecap="butt" stroke-linejoin="miter">
	<path stroke='black'  d='M128.2,87.8 L128.2,458.9 L755.4,458.9 L755.4,87.8 L128.2,87.8 Z  '/></g>
<g fill="none" color="black" stroke="currentColor" stroke-width="1.00" stroke-linecap="butt" stroke-linejoin="miter">
	<g transform="translate(26.5,273.4) rotate(270)" stroke="none" fill="black" font-family="Arial" font-size="18.00"  text-anchor="middle">
		<text><tspan font-family="Arial" >f(x)</tspan></text>
	</g>
</g>
<g fill="none" color="black" stroke="currentColor" stroke-width="1.00" stroke-linecap="butt" stroke-linejoin="miter">
	<g transform="translate(441.8,539.8)" stroke="none" fill="black" font-family="Arial" font-size="18.00"  text-anchor="middle">
		<text><tspan font-family="Arial" >x</tspan></text>
	</g>
</g>
<g fill="none" color="black" stroke="currentColor" stroke-width="1.00" stroke-linecap="butt" stroke-linejoin="miter">
	<g transform="translate(441.8,47.3)" stroke="none" fill="black" font-family="Arial" font-size="18.00"  text-anchor="middle">
		<text><tspan font-family="Arial" >Solving ODE: df(x)/dx = f(x)*(1 - f(x))</tspan></text>
	</g>
</g>
	<g id="gnuplot_plot_1" ><title>Estimated solution: f(x)</title>
<g fill="none" color="black" stroke="currentColor" stroke-width="1.00" stroke-linecap="butt" stroke-linejoin="miter">
	<g transform="translate(591.8,556.5)" stroke="none" fill="black" font-family="Arial" font-size="16.00"  text-anchor="end">
		<text><tspan font-family="Arial" >Estimated solution: f(x)</tspan></text>
	</g>
</g>
<g fill="none" color="black" stroke="currentColor" stroke-width="1.00" stroke-linecap="butt" stroke-linejoin="miter">
	<use xlink:href='#gpPt5' transform='translate(128.2,458.9) scale(6.75)' color='rgb( 34, 139,  34)'/>
	<use xlink:href='#gpPt5' transform='translate(129.4,457.8) scale(6.75)' color='rgb( 34, 139,  34)'/>
	<use xlink:href='#gpPt5' transform='translate(130.6,456.8) scale(6.75)' color='rgb( 34, 139,  34)'/>
	<use xlink:href='#gpPt5' transform='translate(131.7,455.8) scale(6.75)' color='rgb( 34, 139,  34)'/>
	<use xlink:href='#gpPt5' transform='translate(132.8,454.8) scale(6.75)' color='rgb( 34, 139,  34)'/>
	<use xlink:href='#gpPt5' transform='translate(133.9,453.8) scale(6.75)' color='rgb( 34, 139,  34)'/>
	<use xlink:href='#gpPt5' transform='translate(135.0,452.9) scale(6.75)' color='rgb( 34, 139,  34)'/>
	<use xlink:href='#gpPt5' transform='translate(136.1,451.9) scale(6.75)' color='rgb( 34, 139,  34)'/>
	<use xlink:href='#gpPt5' transform='translate(137.1,451.0) scale(6.75)' color='rgb( 34, 139,  34)'/>
	<use xlink:href='#gpPt5' transform='translate(138.1,450.1) scale(6.75)' color='rgb( 34, 139,  34)'/>
	<use xlink:href='#gpPt5' transform='translate(139.2,449.1) scale(6.75)' color='rgb( 34, 139,  34)'/>
	<use xlink:href='#gpPt5' transform='translate(140.2,448.2) scale(6.75)' color='rgb( 34, 139,  34)'/>
	<use xlink:href='#gpPt5' transform='translate(141.3,447.3) scale(6.75)' color='rgb( 34, 139,  34)'/>
	<use xlink:href='#gpPt5' transform='translate(142.3,446.4) scale(6.75)' color='rgb( 34, 139,  34)'/>
	<use xlink:href='#gpPt5' transform='translate(143.3,445.5) scale(6.75)' color='rgb( 34, 139,  34)'/>
	<use xlink:href='#gpPt5' transform='translate(144.4,444.6) scale(6.75)' color='rgb( 34, 139,  34)'/>
	<use xlink:href='#gpPt5' transform='translate(145.4,443.6) scale(6.75)' color='rgb( 34, 139,  34)'/>
	<use xlink:href='#gpPt5' transform='translate(146.4,442.7) scale(6.75)' color='rgb( 34, 139,  34)'/>
	<use xlink:href='#gpPt5' transform='translate(147.5,441.8) scale(6.75)' color='rgb( 34, 139,  34)'/>
	<use xlink:href='#gpPt5' transform='translate(148.5,440.9) scale(6.75)' color='rgb( 34, 139,  34)'/>
	<use xlink:href='#gpPt5' transform='translate(149.6,440.0) scale(6.75)' color='rgb( 34, 139,  34)'/>
	<use xlink:href='#gpPt5' transform='translate(150.6,439.0) scale(6.75)' color='rgb( 34, 139,  34)'/>
	<use xlink:href='#gpPt5' transform='translate(151.6,438.1) scale(6.75)' color='rgb( 34, 139,  34)'/>
	<use xlink:href='#gpPt5' transform='translate(152.7,437.2) scale(6.75)' color='rgb( 34, 139,  34)'/>
	<use xlink:href='#gpPt5' transform='translate(153.7,436.3) scale(6.75)' color='rgb( 34, 139,  34)'/>
	<use xlink:href='#gpPt5' transform='translate(154.8,435.4) scale(6.75)' color='rgb( 34, 139,  34)'/>
	<use xlink:href='#gpPt5' transform='translate(155.8,434.4) scale(6.75)' color='rgb( 34, 139,  34)'/>
	<use xlink:href='#gpPt5' transform='translate(156.9,433.5) scale(6.75)' color='rgb( 34, 139,  34)'/>
	<use xlink:href='#gpPt5' transform='translate(157.9,432.6) scale(6.75)' color='rgb( 34, 139,  34)'/>
	<use xlink:href='#gpPt5' transform='translate(158.9,431.7) scale(6.75)' color='rgb( 34, 139,  34)'/>
	<use xlink:href='#gpPt5' transform='translate(160.0,430.7) scale(6.75)' color='rgb( 34, 139,  34)'/>
	<use xlink:href='#gpPt5' transform='translate(161.0,429.8) scale(6.75)' color='rgb( 34, 139,  34)'/>
	<use xlink:href='#gpPt5' transform='translate(162.1,428.9) scale(6.75)' color='rgb( 34, 139,  34)'/>
	<use xlink:href='#gpPt5' transform='translate(163.1,428.0) scale(6.75)' color='rgb( 34, 139,  34)'/>
	<use xlink:href='#gpPt5' transform='translate(164.2,427.0) scale(6.75)' color='rgb( 34, 139,  34)'/>
	<use xlink:href='#gpPt5' transform='translate(165.3,426.1) scale(6.75)' color='rgb( 34, 139,  34)'/>
	<use xlink:href='#gpPt5' transform='translate(166.3,425.2) scale(6.75)' color='rgb( 34, 139,  34)'/>
	<use xlink:href='#gpPt5' transform='translate(167.4,424.2) scale(6.75)' color='rgb( 34, 139,  34)'/>
	<use xlink:href='#gpPt5' transform='translate(168.4,423.3) scale(6.75)' color='rgb( 34, 139,  34)'/>
	<use xlink:href='#gpPt5' transform='translate(169.5,422.4) scale(6.75)' color='rgb( 34, 139,  34)'/>
	<use xlink:href='#gpPt5' transform='translate(170.5,421.4) scale(6.75)' color='rgb( 34, 139,  34)'/>
	<use xlink:href='#gpPt5' transform='translate(171.6,420.5) scale(6.75)' color='rgb( 34, 139,  34)'/>
	<use xlink:href='#gpPt5' transform='translate(172.7,419.6) scale(6.75)' color='rgb( 34, 139,  34)'/>
	<use xlink:href='#gpPt5' transform='translate(173.7,418.6) scale(6.75)' color='rgb( 34, 139,  34)'/>
	<use xlink:href='#gpPt5' transform='translate(174.8,417.7) scale(6.75)' color='rgb( 34, 139,  34)'/>
	<use xlink:href='#gpPt5' transform='translate(175.9,416.8) scale(6.75)' color='rgb( 34, 139,  34)'/>
	<use xlink:href='#gpPt5' transform='translate(176.9,415.8) scale(6.75)' color='rgb( 34, 139,  34)'/>
	<use xlink:href='#gpPt5' transform='translate(178.0,414.9) scale(6.75)' color='rgb( 34, 139,  34)'/>
	<use xlink:href='#gpPt5' transform='translate(179.1,414.0) scale(6.75)' color='rgb( 34, 139,  34)'/>
	<use xlink:href='#gpPt5' transform='translate(180.2,413.0) scale(6.75)' color='rgb( 34, 139,  34)'/>
	<use xlink:href='#gpPt5' transform='translate(181.2,412.1) scale(6.75)' color='rgb( 34, 139,  34)'/>
	<use xlink:href='#gpPt5' transform='translate(182.3,411.1) scale(6.75)' color='rgb( 34, 139,  34)'/>
	<use xlink:href='#gpPt5' transform='translate(183.4,410.2) scale(6.75)' color='rgb( 34, 139,  34)'/>
	<use xlink:href='#gpPt5' transform='translate(184.5,409.3) scale(6.75)' color='rgb( 34, 139,  34)'/>
	<use xlink:href='#gpPt5' transform='translate(185.6,408.3) scale(6.75)' color='rgb( 34, 139,  34)'/>
	<use xlink:href='#gpPt5' transform='translate(186.6,407.4) scale(6.75)' color='rgb( 34, 139,  34)'/>
	<use xlink:href='#gpPt5' transform='translate(187.7,406.4) scale(6.75)' color='rgb( 34, 139,  34)'/>
	<use xlink:href='#gpPt5' transform='translate(188.8,405.5) scale(6.75)' color='rgb( 34, 139,  34)'/>
	<use xlink:href='#gpPt5' transform='translate(189.9,404.5) scale(6.75)' color='rgb( 34, 139,  34)'/>
	<use xlink:href='#gpPt5' transform='translate(191.0,403.6) scale(6.75)' color='rgb( 34, 139,  34)'/>
	<use xlink:href='#gpPt5' transform='translate(192.1,402.6) scale(6.75)' color='rgb( 34, 139,  34)'/>
	<use xlink:href='#gpPt5' transform='translate(193.2,401.7) scale(6.75)' color='rgb( 34, 139,  34)'/>
	<use xlink:href='#gpPt5' transform='translate(194.3,400.7) scale(6.75)' color='rgb( 34, 139,  34)'/>
	<use xlink:href='#gpPt5' transform='translate(195.4,399.8) scale(6.75)' color='rgb( 34, 139,  34)'/>
	<use xlink:href='#gpPt5' transform='translate(196.5,398.8) scale(6.75)' color='rgb( 34, 139,  34)'/>
	<use xlink:href='#gpPt5' transform='translate(197.6,397.9) scale(6.75)' color='rgb( 34, 139,  34)'/>
	<use xlink:href='#gpPt5' transform='translate(198.7,396.9) scale(6.75)' color='rgb( 34, 139,  34)'/>
	<use xlink:href='#gpPt5' transform='translate(199.8,396.0) scale(6.75)' color='rgb( 34, 139,  34)'/>
	<use xlink:href='#gpPt5' transform='translate(200.9,395.0) scale(6.75)' color='rgb( 34, 139,  34)'/>
	<use xlink:href='#gpPt5' transform='translate(202.0,394.1) scale(6.75)' color='rgb( 34, 139,  34)'/>
	<use xlink:href='#gpPt5' transform='translate(203.1,393.1) scale(6.75)' color='rgb( 34, 139,  34)'/>
	<use xlink:href='#gpPt5' transform='translate(204.2,392.2) scale(6.75)' color='rgb( 34, 139,  34)'/>
	<use xlink:href='#gpPt5' transform='translate(205.3,391.2) scale(6.75)' color='rgb( 34, 139,  34)'/>
	<use xlink:href='#gpPt5' transform='translate(206.4,390.3) scale(6.75)' color='rgb( 34, 139,  34)'/>
	<use xlink:href='#gpPt5' transform='translate(207.5,389.3) scale(6.75)' color='rgb( 34, 139,  34)'/>
	<use xlink:href='#gpPt5' transform='translate(208.6,388.4) scale(6.75)' color='rgb( 34, 139,  34)'/>
	<use xlink:href='#gpPt5' transform='translate(209.8,387.4) scale(6.75)' color='rgb( 34, 139,  34)'/>
	<use xlink:href='#gpPt5' transform='translate(210.9,386.4) scale(6.75)' color='rgb( 34, 139,  34)'/>
	<use xlink:href='#gpPt5' transform='translate(212.0,385.5) scale(6.75)' color='rgb( 34, 139,  34)'/>
	<use xlink:href='#gpPt5' transform='translate(213.1,384.5) scale(6.75)' color='rgb( 34, 139,  34)'/>
	<use xlink:href='#gpPt5' transform='translate(214.3,383.6) scale(6.75)' color='rgb( 34, 139,  34)'/>
	<use xlink:href='#gpPt5' transform='translate(215.4,382.6) scale(6.75)' color='rgb( 34, 139,  34)'/>
	<use xlink:href='#gpPt5' transform='translate(216.5,381.6) scale(6.75)' color='rgb( 34, 139,  34)'/>
	<use xlink:href='#gpPt5' transform='translate(217.7,380.7) scale(6.75)' color='rgb( 34, 139,  34)'/>
	<use xlink:href='#gpPt5' transform='translate(218.8,379.7) scale(6.75)' color='rgb( 34, 139,  34)'/>
	<use xlink:href='#gpPt5' transform='translate(219.9,378.7) scale(6.75)' color='rgb( 34, 139,  34)'/>
	<use xlink:href='#gpPt5' transform='translate(221.1,377.8) scale(6.75)' color='rgb( 34, 139,  34)'/>
	<use xlink:href='#gpPt5' transform='translate(222.2,376.8) scale(6.75)' color='rgb( 34, 139,  34)'/>
	<use xlink:href='#gpPt5' transform='translate(223.4,375.8) scale(6.75)' color='rgb( 34, 139,  34)'/>
	<use xlink:href='#gpPt5' transform='translate(224.5,374.9) scale(6.75)' color='rgb( 34, 139,  34)'/>
	<use xlink:href='#gpPt5' transform='translate(225.7,373.9) scale(6.75)' color='rgb( 34, 139,  34)'/>
	<use xlink:href='#gpPt5' transform='translate(226.8,372.9) scale(6.75)' color='rgb( 34, 139,  34)'/>
	<use xlink:href='#gpPt5' transform='translate(228.0,372.0) scale(6.75)' color='rgb( 34, 139,  34)'/>
	<use xlink:href='#gpPt5' transform='translate(229.1,371.0) scale(6.75)' color='rgb( 34, 139,  34)'/>
	<use xlink:href='#gpPt5' transform='translate(230.3,370.0) scale(6.75)' color='rgb( 34, 139,  34)'/>
	<use xlink:href='#gpPt5' transform='translate(231.5,369.1) scale(6.75)' color='rgb( 34, 139,  34)'/>
	<use xlink:href='#gpPt5' transform='translate(232.6,368.1) scale(6.75)' color='rgb( 34, 139,  34)'/>
	<use xlink:href='#gpPt5' transform='translate(233.8,367.1) scale(6.75)' color='rgb( 34, 139,  34)'/>
	<use xlink:href='#gpPt5' transform='translate(235.0,366.1) scale(6.75)' color='rgb( 34, 139,  34)'/>
	<use xlink:href='#gpPt5' transform='translate(236.1,365.2) scale(6.75)' color='rgb( 34, 139,  34)'/>
	<use xlink:href='#gpPt5' transform='translate(237.3,364.2) scale(6.75)' color='rgb( 34, 139,  34)'/>
	<use xlink:href='#gpPt5' transform='translate(238.5,363.2) scale(6.75)' color='rgb( 34, 139,  34)'/>
	<use xlink:href='#gpPt5' transform='translate(239.7,362.2) scale(6.75)' color='rgb( 34, 139,  34)'/>
	<use xlink:href='#gpPt5' transform='translate(240.8,361.3) scale(6.75)' color='rgb( 34, 139,  34)'/>
	<use xlink:href='#gpPt5' transform='translate(242.0,360.3) scale(6.75)' color='rgb( 34, 139,  34)'/>
	<use xlink:href='#gpPt5' transform='translate(243.2,359.3) scale(6.75)' color='rgb( 34, 139,  34)'/>
	<use xlink:href='#gpPt5' transform='translate(244.4,358.3) scale(6.75)' color='rgb( 34, 139,  34)'/>
	<use xlink:href='#gpPt5' transform='translate(245.6,357.3) scale(6.75)' color='rgb( 34, 139,  34)'/>
	<use xlink:href='#gpPt5' transform='translate(246.8,356.4) scale(6.75)' color='rgb( 34, 139,  34)'/>
	<use xlink:href='#gpPt5' transform='translate(248.0,355.4) scale(6.75)' color='rgb( 34, 139,  34)'/>
	<use xlink:href='#gpPt5' transform='translate(249.2,354.4) scale(6.75)' color='rgb( 34, 139,  34)'/>
	<use xlink:href='#gpPt5' transform='translate(250.4,353.4) scale(6.75)' color='rgb( 34, 139,  34)'/>
	<use xlink:href='#gpPt5' transform='translate(251.6,352.4) scale(6.75)' color='rgb( 34, 139,  34)'/>
	<use xlink:href='#gpPt5' transform='translate(252.8,351.4) scale(6.75)' color='rgb( 34, 139,  34)'/>
	<use xlink:href='#gpPt5' transform='translate(254.0,350.4) scale(6.75)' color='rgb( 34, 139,  34)'/>
	<use xlink:href='#gpPt5' transform='translate(255.2,349.5) scale(6.75)' color='rgb( 34, 139,  34)'/>
	<use xlink:href='#gpPt5' transform='translate(256.4,348.5) scale(6.75)' color='rgb( 34, 139,  34)'/>
	<use xlink:href='#gpPt5' transform='translate(257.7,347.5) scale(6.75)' color='rgb( 34, 139,  34)'/>
	<use xlink:href='#gpPt5' transform='translate(258.9,346.5) scale(6.75)' color='rgb( 34, 139,  34)'/>
	<use xlink:href='#gpPt5' transform='translate(260.1,345.5) scale(6.75)' color='rgb( 34, 139,  34)'/>
	<use xlink:href='#gpPt5' transform='translate(261.3,344.5) scale(6.75)' color='rgb( 34, 139,  34)'/>
	<use xlink:href='#gpPt5' transform='translate(262.6,343.5) scale(6.75)' color='rgb( 34, 139,  34)'/>
	<use xlink:href='#gpPt5' transform='translate(263.8,342.5) scale(6.75)' color='rgb( 34, 139,  34)'/>
	<use xlink:href='#gpPt5' transform='translate(265.1,341.5) scale(6.75)' color='rgb( 34, 139,  34)'/>
	<use xlink:href='#gpPt5' transform='translate(266.3,340.6) scale(6.75)' color='rgb( 34, 139,  34)'/>
	<use xlink:href='#gpPt5' transform='translate(267.5,339.6) scale(6.75)' color='rgb( 34, 139,  34)'/>
	<use xlink:href='#gpPt5' transform='translate(268.8,338.6) scale(6.75)' color='rgb( 34, 139,  34)'/>
	<use xlink:href='#gpPt5' transform='translate(270.1,337.6) scale(6.75)' color='rgb( 34, 139,  34)'/>
	<use xlink:href='#gpPt5' transform='translate(271.3,336.6) scale(6.75)' color='rgb( 34, 139,  34)'/>
	<use xlink:href='#gpPt5' transform='translate(272.6,335.6) scale(6.75)' color='rgb( 34, 139,  34)'/>
	<use xlink:href='#gpPt5' transform='translate(273.8,334.6) scale(6.75)' color='rgb( 34, 139,  34)'/>
	<use xlink:href='#gpPt5' transform='translate(275.1,333.6) scale(6.75)' color='rgb( 34, 139,  34)'/>
	<use xlink:href='#gpPt5' transform='translate(276.4,332.6) scale(6.75)' color='rgb( 34, 139,  34)'/>
	<use xlink:href='#gpPt5' transform='translate(277.6,331.6) scale(6.75)' color='rgb( 34, 139,  34)'/>
	<use xlink:href='#gpPt5' transform='translate(278.9,330.6) scale(6.75)' color='rgb( 34, 139,  34)'/>
	<use xlink:href='#gpPt5' transform='translate(280.2,329.6) scale(6.75)' color='rgb( 34, 139,  34)'/>
	<use xlink:href='#gpPt5' transform='translate(281.5,328.6) scale(6.75)' color='rgb( 34, 139,  34)'/>
	<use xlink:href='#gpPt5' transform='translate(282.8,327.6) scale(6.75)' color='rgb( 34, 139,  34)'/>
	<use xlink:href='#gpPt5' transform='translate(284.1,326.6) scale(6.75)' color='rgb( 34, 139,  34)'/>
	<use xlink:href='#gpPt5' transform='translate(285.4,325.6) scale(6.75)' color='rgb( 34, 139,  34)'/>
	<use xlink:href='#gpPt5' transform='translate(286.7,324.6) scale(6.75)' color='rgb( 34, 139,  34)'/>
	<use xlink:href='#gpPt5' transform='translate(288.0,323.6) scale(6.75)' color='rgb( 34, 139,  34)'/>
	<use xlink:href='#gpPt5' transform='translate(289.3,322.6) scale(6.75)' color='rgb( 34, 139,  34)'/>
	<use xlink:href='#gpPt5' transform='translate(290.6,321.6) scale(6.75)' color='rgb( 34, 139,  34)'/>
	<use xlink:href='#gpPt5' transform='translate(291.9,320.5) scale(6.75)' color='rgb( 34, 139,  34)'/>
	<use xlink:href='#gpPt5' transform='translate(293.2,319.5) scale(6.75)' color='rgb( 34, 139,  34)'/>
	<use xlink:href='#gpPt5' transform='translate(294.5,318.5) scale(6.75)' color='rgb( 34, 139,  34)'/>
	<use xlink:href='#gpPt5' transform='translate(295.9,317.5) scale(6.75)' color='rgb( 34, 139,  34)'/>
	<use xlink:href='#gpPt5' transform='translate(297.2,316.5) scale(6.75)' color='rgb( 34, 139,  34)'/>
	<use xlink:href='#gpPt5' transform='translate(298.5,315.5) scale(6.75)' color='rgb( 34, 139,  34)'/>
	<use xlink:href='#gpPt5' transform='translate(299.9,314.5) scale(6.75)' color='rgb( 34, 139,  34)'/>
	<use xlink:href='#gpPt5' transform='translate(301.2,313.5) scale(6.75)' color='rgb( 34, 139,  34)'/>
	<use xlink:href='#gpPt5' transform='translate(302.6,312.5) scale(6.75)' color='rgb( 34, 139,  34)'/>
	<use xlink:href='#gpPt5' transform='translate(303.9,311.5) scale(6.75)' color='rgb( 34, 139,  34)'/>
	<use xlink:href='#gpPt5' transform='translate(305.3,310.4) scale(6.75)' color='rgb( 34, 139,  34)'/>
	<use xlink:href='#gpPt5' transform='translate(306.6,309.4) scale(6.75)' color='rgb( 34, 139,  34)'/>
	<use xlink:href='#gpPt5' transform='translate(308.0,308.4) scale(6.75)' color='rgb( 34, 139,  34)'/>
	<use xlink:href='#gpPt5' transform='translate(309.4,307.4) scale(6.75)' color='rgb( 34, 139,  34)'/>
	<use xlink:href='#gpPt5' transform='translate(310.7,306.4) scale(6.75)' color='rgb( 34, 139,  34)'/>
	<use xlink:href='#gpPt5' transform='translate(312.1,305.4) scale(6.75)' color='rgb( 34, 139,  34)'/>
	<use xlink:href='#gpPt5' transform='translate(313.5,304.3) scale(6.75)' color='rgb( 34, 139,  34)'/>
	<use xlink:href='#gpPt5' transform='translate(314.9,303.3) scale(6.75)' color='rgb( 34, 139,  34)'/>
	<use xlink:href='#gpPt5' transform='translate(316.3,302.3) scale(6.75)' color='rgb( 34, 139,  34)'/>
	<use xlink:href='#gpPt5' transform='translate(317.7,301.3) scale(6.75)' color='rgb( 34, 139,  34)'/>
	<use xlink:href='#gpPt5' transform='translate(319.1,300.3) scale(6.75)' color='rgb( 34, 139,  34)'/>
	<use xlink:href='#gpPt5' transform='translate(320.5,299.2) scale(6.75)' color='rgb( 34, 139,  34)'/>
	<use xlink:href='#gpPt5' transform='translate(321.9,298.2) scale(6.75)' color='rgb( 34, 139,  34)'/>
	<use xlink:href='#gpPt5' transform='translate(323.3,297.2) scale(6.75)' color='rgb( 34, 139,  34)'/>
	<use xlink:href='#gpPt5' transform='translate(324.8,296.2) scale(6.75)' color='rgb( 34, 139,  34)'/>
	<use xlink:href='#gpPt5' transform='translate(326.2,295.1) scale(6.75)' color='rgb( 34, 139,  34)'/>
	<use xlink:href='#gpPt5' transform='translate(327.6,294.1) scale(6.75)' color='rgb( 34, 139,  34)'/>
	<use xlink:href='#gpPt5' transform='translate(329.1,293.1) scale(6.75)' color='rgb( 34, 139,  34)'/>
	<use xlink:href='#gpPt5' transform='translate(330.5,292.1) scale(6.75)' color='rgb( 34, 139,  34)'/>
	<use xlink:href='#gpPt5' transform='translate(332.0,291.0) scale(6.75)' color='rgb( 34, 139,  34)'/>
	<use xlink:href='#gpPt5' transform='translate(333.4,290.0) scale(6.75)' color='rgb( 34, 139,  34)'/>
	<use xlink:href='#gpPt5' transform='translate(334.9,289.0) scale(6.75)' color='rgb( 34, 139,  34)'/>
	<use xlink:href='#gpPt5' transform='translate(336.3,287.9) scale(6.75)' color='rgb( 34, 139,  34)'/>
	<use xlink:href='#gpPt5' transform='translate(337.8,286.9) scale(6.75)' color='rgb( 34, 139,  34)'/>
	<use xlink:href='#gpPt5' transform='translate(339.3,285.9) scale(6.75)' color='rgb( 34, 139,  34)'/>
	<use xlink:href='#gpPt5' transform='translate(340.8,284.9) scale(6.75)' color='rgb( 34, 139,  34)'/>
	<use xlink:href='#gpPt5' transform='translate(342.3,283.8) scale(6.75)' color='rgb( 34, 139,  34)'/>
	<use xlink:href='#gpPt5' transform='translate(343.8,282.8) scale(6.75)' color='rgb( 34, 139,  34)'/>
	<use xlink:href='#gpPt5' transform='translate(345.3,281.8) scale(6.75)' color='rgb( 34, 139,  34)'/>
	<use xlink:href='#gpPt5' transform='translate(346.8,280.7) scale(6.75)' color='rgb( 34, 139,  34)'/>
	<use xlink:href='#gpPt5' transform='translate(348.3,279.7) scale(6.75)' color='rgb( 34, 139,  34)'/>
	<use xlink:href='#gpPt5' transform='translate(349.8,278.6) scale(6.75)' color='rgb( 34, 139,  34)'/>
	<use xlink:href='#gpPt5' transform='translate(351.4,277.6) scale(6.75)' color='rgb( 34, 139,  34)'/>
	<use xlink:href='#gpPt5' transform='translate(352.9,276.6) scale(6.75)' color='rgb( 34, 139,  34)'/>
	<use xlink:href='#gpPt5' transform='translate(354.4,275.5) scale(6.75)' color='rgb( 34, 139,  34)'/>
	<use xlink:href='#gpPt5' transform='translate(356.0,274.5) scale(6.75)' color='rgb( 34, 139,  34)'/>
	<use xlink:href='#gpPt5' transform='translate(357.5,273.5) scale(6.75)' color='rgb( 34, 139,  34)'/>
	<use xlink:href='#gpPt5' transform='translate(359.1,272.4) scale(6.75)' color='rgb( 34, 139,  34)'/>
	<use xlink:href='#gpPt5' transform='translate(360.7,271.4) scale(6.75)' color='rgb( 34, 139,  34)'/>
	<use xlink:href='#gpPt5' transform='translate(362.2,270.3) scale(6.75)' color='rgb( 34, 139,  34)'/>
	<use xlink:href='#gpPt5' transform='translate(363.8,269.3) scale(6.75)' color='rgb( 34, 139,  34)'/>
	<use xlink:href='#gpPt5' transform='translate(365.4,268.2) scale(6.75)' color='rgb( 34, 139,  34)'/>
	<use xlink:href='#gpPt5' transform='translate(367.0,267.2) scale(6.75)' color='rgb( 34, 139,  34)'/>
	<use xlink:href='#gpPt5' transform='translate(368.6,266.2) scale(6.75)' color='rgb( 34, 139,  34)'/>
	<use xlink:href='#gpPt5' transform='translate(370.2,265.1) scale(6.75)' color='rgb( 34, 139,  34)'/>
	<use xlink:href='#gpPt5' transform='translate(371.9,264.1) scale(6.75)' color='rgb( 34, 139,  34)'/>
	<use xlink:href='#gpPt5' transform='translate(373.5,263.0) scale(6.75)' color='rgb( 34, 139,  34)'/>
	<use xlink:href='#gpPt5' transform='translate(375.1,262.0) scale(6.75)' color='rgb( 34, 139,  34)'/>
	<use xlink:href='#gpPt5' transform='translate(376.8,260.9) scale(6.75)' color='rgb( 34, 139,  34)'/>
	<use xlink:href='#gpPt5' transform='translate(378.4,259.9) scale(6.75)' color='rgb( 34, 139,  34)'/>
	<use xlink:href='#gpPt5' transform='translate(380.1,258.8) scale(6.75)' color='rgb( 34, 139,  34)'/>
	<use xlink:href='#gpPt5' transform='translate(381.7,257.8) scale(6.75)' color='rgb( 34, 139,  34)'/>
	<use xlink:href='#gpPt5' transform='translate(383.4,256.7) scale(6.75)' color='rgb( 34, 139,  34)'/>
	<use xlink:href='#gpPt5' transform='translate(385.1,255.7) scale(6.75)' color='rgb( 34, 139,  34)'/>
	<use xlink:href='#gpPt5' transform='translate(386.8,254.6) scale(6.75)' color='rgb( 34, 139,  34)'/>
	<use xlink:href='#gpPt5' transform='translate(388.5,253.6) scale(6.75)' color='rgb( 34, 139,  34)'/>
	<use xlink:href='#gpPt5' transform='translate(390.2,252.5) scale(6.75)' color='rgb( 34, 139,  34)'/>
	<use xlink:href='#gpPt5' transform='translate(391.9,251.5) scale(6.75)' color='rgb( 34, 139,  34)'/>
	<use xlink:href='#gpPt5' transform='translate(393.6,250.4) scale(6.75)' color='rgb( 34, 139,  34)'/>
	<use xlink:href='#gpPt5' transform='translate(395.4,249.4) scale(6.75)' color='rgb( 34, 139,  34)'/>
	<use xlink:href='#gpPt5' transform='translate(397.1,248.3) scale(6.75)' color='rgb( 34, 139,  34)'/>
	<use xlink:href='#gpPt5' transform='translate(398.9,247.2) scale(6.75)' color='rgb( 34, 139,  34)'/>
	<use xlink:href='#gpPt5' transform='translate(400.6,246.2) scale(6.75)' color='rgb( 34, 139,  34)'/>
	<use xlink:href='#gpPt5' transform='translate(402.4,245.1) scale(6.75)' color='rgb( 34, 139,  34)'/>
	<use xlink:href='#gpPt5' transform='translate(404.2,244.1) scale(6.75)' color='rgb( 34, 139,  34)'/>
	<use xlink:href='#gpPt5' transform='translate(406.0,243.0) scale(6.75)' color='rgb( 34, 139,  34)'/>
	<use xlink:href='#gpPt5' transform='translate(407.8,242.0) scale(6.75)' color='rgb( 34, 139,  34)'/>
	<use xlink:href='#gpPt5' transform='translate(409.6,240.9) scale(6.75)' color='rgb( 34, 139,  34)'/>
	<use xlink:href='#gpPt5' transform='translate(411.4,239.8) scale(6.75)' color='rgb( 34, 139,  34)'/>
	<use xlink:href='#gpPt5' transform='translate(413.3,238.8) scale(6.75)' color='rgb( 34, 139,  34)'/>
	<use xlink:href='#gpPt5' transform='translate(415.1,237.7) scale(6.75)' color='rgb( 34, 139,  34)'/>
	<use xlink:href='#gpPt5' transform='translate(417.0,236.7) scale(6.75)' color='rgb( 34, 139,  34)'/>
	<use xlink:href='#gpPt5' transform='translate(418.9,235.6) scale(6.75)' color='rgb( 34, 139,  34)'/>
	<use xlink:href='#gpPt5' transform='translate(420.7,234.5) scale(6.75)' color='rgb( 34, 139,  34)'/>
	<use xlink:href='#gpPt5' transform='translate(422.6,233.5) scale(6.75)' color='rgb( 34, 139,  34)'/>
	<use xlink:href='#gpPt5' transform='translate(424.5,232.4) scale(6.75)' color='rgb( 34, 139,  34)'/>
	<use xlink:href='#gpPt5' transform='translate(426.4,231.3) scale(6.75)' color='rgb( 34, 139,  34)'/>
	<use xlink:href='#gpPt5' transform='translate(428.4,230.3) scale(6.75)' color='rgb( 34, 139,  34)'/>
	<use xlink:href='#gpPt5' transform='translate(430.3,229.2) scale(6.75)' color='rgb( 34, 139,  34)'/>
	<use xlink:href='#gpPt5' transform='translate(432.2,228.1) scale(6.75)' color='rgb( 34, 139,  34)'/>
	<use xlink:href='#gpPt5' transform='translate(434.2,227.1) scale(6.75)' color='rgb( 34, 139,  34)'/>
	<use xlink:href='#gpPt5' transform='translate(436.2,226.0) scale(6.75)' color='rgb( 34, 139,  34)'/>
	<use xlink:href='#gpPt5' transform='translate(438.2,224.9) scale(6.75)' color='rgb( 34, 139,  34)'/>
	<use xlink:href='#gpPt5' transform='translate(440.2,223.9) scale(6.75)' color='rgb( 34, 139,  34)'/>
	<use xlink:href='#gpPt5' transform='translate(442.2,222.8) scale(6.75)' color='rgb( 34, 139,  34)'/>
	<use xlink:href='#gpPt5' transform='translate(444.2,221.7) scale(6.75)' color='rgb( 34, 139,  34)'/>
	<use xlink:href='#gpPt5' transform='translate(446.3,220.6) scale(6.75)' color='rgb( 34, 139,  34)'/>
	<use xlink:href='#gpPt5' transform='translate(448.3,219.6) scale(6.75)' color='rgb( 34, 139,  34)'/>
	<use xlink:href='#gpPt5' transform='translate(450.4,218.5) scale(6.75)' color='rgb( 34, 139,  34)'/>
	<use xlink:href='#gpPt5' transform='translate(452.5,217.4) scale(6.75)' color='rgb( 34, 139,  34)'/>
	<use xlink:href='#gpPt5' transform='translate(454.6,216.4) scale(6.75)' color='rgb( 34, 139,  34)'/>
	<use xlink:href='#gpPt5' transform='translate(456.7,215.3) scale(6.75)' color='rgb( 34, 139,  34)'/>
	<use xlink:href='#gpPt5' transform='translate(458.8,214.2) scale(6.75)' color='rgb( 34, 139,  34)'/>
	<use xlink:href='#gpPt5' transform='translate(460.9,213.1) scale(6.75)' color='rgb( 34, 139,  34)'/>
	<use xlink:href='#gpPt5' transform='translate(463.1,212.1) scale(6.75)' color='rgb( 34, 139,  34)'/>
	<use xlink:href='#gpPt5' transform='translate(465.3,211.0) scale(6.75)' color='rgb( 34, 139,  34)'/>
	<use xlink:href='#gpPt5' transform='translate(467.5,209.9) scale(6.75)' color='rgb( 34, 139,  34)'/>
	<use xlink:href='#gpPt5' transform='translate(469.7,208.8) scale(6.75)' color='rgb( 34, 139,  34)'/>
	<use xlink:href='#gpPt5' transform='translate(471.9,207.7) scale(6.75)' color='rgb( 34, 139,  34)'/>
	<use xlink:href='#gpPt5' transform='translate(474.1,206.7) scale(6.75)' color='rgb( 34, 139,  34)'/>
	<use xlink:href='#gpPt5' transform='translate(476.4,205.6) scale(6.75)' color='rgb( 34, 139,  34)'/>
	<use xlink:href='#gpPt5' transform='translate(478.7,204.5) scale(6.75)' color='rgb( 34, 139,  34)'/>
	<use xlink:href='#gpPt5' transform='translate(481.0,203.4) scale(6.75)' color='rgb( 34, 139,  34)'/>
	<use xlink:href='#gpPt5' transform='translate(483.3,202.3) scale(6.75)' color='rgb( 34, 139,  34)'/>
	<use xlink:href='#gpPt5' transform='translate(485.6,201.3) scale(6.75)' color='rgb( 34, 139,  34)'/>
	<use xlink:href='#gpPt5' transform='translate(488.0,200.2) scale(6.75)' color='rgb( 34, 139,  34)'/>
	<use xlink:href='#gpPt5' transform='translate(490.3,199.1) scale(6.75)' color='rgb( 34, 139,  34)'/>
	<use xlink:href='#gpPt5' transform='translate(492.7,198.0) scale(6.75)' color='rgb( 34, 139,  34)'/>
	<use xlink:href='#gpPt5' transform='translate(495.1,196.9) scale(6.75)' color='rgb( 34, 139,  34)'/>
	<use xlink:href='#gpPt5' transform='translate(497.6,195.9) scale(6.75)' color='rgb( 34, 139,  34)'/>
	<use xlink:href='#gpPt5' transform='translate(500.0,194.8) scale(6.75)' color='rgb( 34, 139,  34)'/>
	<use xlink:href='#gpPt5' transform='translate(502.5,193.7) scale(6.75)' color='rgb( 34, 139,  34)'/>
	<use xlink:href='#gpPt5' transform='translate(505.0,192.6) scale(6.75)' color='rgb( 34, 139,  34)'/>
	<use xlink:href='#gpPt5' transform='translate(507.5,191.5) scale(6.75)' color='rgb( 34, 139,  34)'/>
	<use xlink:href='#gpPt5' transform='translate(510.1,190.4) scale(6.75)' color='rgb( 34, 139,  34)'/>
	<use xlink:href='#gpPt5' transform='translate(512.6,189.4) scale(6.75)' color='rgb( 34, 139,  34)'/>
	<use xlink:href='#gpPt5' transform='translate(515.2,188.3) scale(6.75)' color='rgb( 34, 139,  34)'/>
	<use xlink:href='#gpPt5' transform='translate(517.8,187.2) scale(6.75)' color='rgb( 34, 139,  34)'/>
	<use xlink:href='#gpPt5' transform='translate(520.5,186.1) scale(6.75)' color='rgb( 34, 139,  34)'/>
	<use xlink:href='#gpPt5' transform='translate(523.1,185.0) scale(6.75)' color='rgb( 34, 139,  34)'/>
	<use xlink:href='#gpPt5' transform='translate(525.8,183.9) scale(6.75)' color='rgb( 34, 139,  34)'/>
	<use xlink:href='#gpPt5' transform='translate(528.5,182.8) scale(6.75)' color='rgb( 34, 139,  34)'/>
	<use xlink:href='#gpPt5' transform='translate(531.3,181.7) scale(6.75)' color='rgb( 34, 139,  34)'/>
	<use xlink:href='#gpPt5' transform='translate(534.1,180.7) scale(6.75)' color='rgb( 34, 139,  34)'/>
	<use xlink:href='#gpPt5' transform='translate(536.9,179.6) scale(6.75)' color='rgb( 34, 139,  34)'/>
	<use xlink:href='#gpPt5' transform='translate(539.7,178.5) scale(6.75)' color='rgb( 34, 139,  34)'/>
	<use xlink:href='#gpPt5' transform='translate(542.5,177.4) scale(6.75)' color='rgb( 34, 139,  34)'/>
	<use xlink:href='#gpPt5' transform='translate(545.4,176.3) scale(6.75)' color='rgb( 34, 139,  34)'/>
	<use xlink:href='#gpPt5' transform='translate(548.4,175.2) scale(6.75)' color='rgb( 34, 139,  34)'/>
	<use xlink:href='#gpPt5' transform='translate(551.3,174.1) scale(6.75)' color='rgb( 34, 139,  34)'/>
	<use xlink:href='#gpPt5' transform='translate(554.3,173.0) scale(6.75)' color='rgb( 34, 139,  34)'/>
	<use xlink:href='#gpPt5' transform='translate(557.3,171.9) scale(6.75)' color='rgb( 34, 139,  34)'/>
	<use xlink:href='#gpPt5' transform='translate(560.4,170.9) scale(6.75)' color='rgb( 34, 139,  34)'/>
	<use xlink:href='#gpPt5' transform='translate(563.5,169.8) scale(6.75)' color='rgb( 34, 139,  34)'/>
	<use xlink:href='#gpPt5' transform='translate(566.6,168.7) scale(6.75)' color='rgb( 34, 139,  34)'/>
	<use xlink:href='#gpPt5' transform='translate(569.8,167.6) scale(6.75)' color='rgb( 34, 139,  34)'/>
	<use xlink:href='#gpPt5' transform='translate(573.0,166.5) scale(6.75)' color='rgb( 34, 139,  34)'/>
	<use xlink:href='#gpPt5' transform='translate(576.2,165.4) scale(6.75)' color='rgb( 34, 139,  34)'/>
	<use xlink:href='#gpPt5' transform='translate(579.5,164.3) scale(6.75)' color='rgb( 34, 139,  34)'/>
	<use xlink:href='#gpPt5' transform='translate(582.8,163.2) scale(6.75)' color='rgb( 34, 139,  34)'/>
	<use xlink:href='#gpPt5' transform='translate(586.2,162.1) scale(6.75)' color='rgb( 34, 139,  34)'/>
	<use xlink:href='#gpPt5' transform='translate(589.6,161.0) scale(6.75)' color='rgb( 34, 139,  34)'/>
	<use xlink:href='#gpPt5' transform='translate(593.0,159.9) scale(6.75)' color='rgb( 34, 139,  34)'/>
	<use xlink:href='#gpPt5' transform='translate(596.5,158.9) scale(6.75)' color='rgb( 34, 139,  34)'/>
	<use xlink:href='#gpPt5' transform='translate(600.1,157.8) scale(6.75)' color='rgb( 34, 139,  34)'/>
	<use xlink:href='#gpPt5' transform='translate(603.7,156.7) scale(6.75)' color='rgb( 34, 139,  34)'/>
	<use xlink:href='#gpPt5' transform='translate(607.3,155.6) scale(6.75)' color='rgb( 34, 139,  34)'/>
	<use xlink:href='#gpPt5' transform='translate(611.0,154.5) scale(6.75)' color='rgb( 34, 139,  34)'/>
	<use xlink:href='#gpPt5' transform='translate(614.8,153.4) scale(6.75)' color='rgb( 34, 139,  34)'/>
	<use xlink:href='#gpPt5' transform='translate(618.6,152.3) scale(6.75)' color='rgb( 34, 139,  34)'/>
	<use xlink:href='#gpPt5' transform='translate(622.4,151.2) scale(6.75)' color='rgb( 34, 139,  34)'/>
	<use xlink:href='#gpPt5' transform='translate(626.4,150.1) scale(6.75)' color='rgb( 34, 139,  34)'/>
	<use xlink:href='#gpPt5' transform='translate(630.4,149.1) scale(6.75)' color='rgb( 34, 139,  34)'/>
	<use xlink:href='#gpPt5' transform='translate(634.4,148.0) scale(6.75)' color='rgb( 34, 139,  34)'/>
	<use xlink:href='#gpPt5' transform='translate(638.5,146.9) scale(6.75)' color='rgb( 34, 139,  34)'/>
	<use xlink:href='#gpPt5' transform='translate(642.7,145.8) scale(6.75)' color='rgb( 34, 139,  34)'/>
	<use xlink:href='#gpPt5' transform='translate(647.0,144.7) scale(6.75)' color='rgb( 34, 139,  34)'/>
	<use xlink:href='#gpPt5' transform='translate(651.3,143.6) scale(6.75)' color='rgb( 34, 139,  34)'/>
	<use xlink:href='#gpPt5' transform='translate(655.7,142.5) scale(6.75)' color='rgb( 34, 139,  34)'/>
	<use xlink:href='#gpPt5' transform='translate(660.2,141.4) scale(6.75)' color='rgb( 34, 139,  34)'/>
	<use xlink:href='#gpPt5' transform='translate(664.7,140.4) scale(6.75)' color='rgb( 34, 139,  34)'/>
	<use xlink:href='#gpPt5' transform='translate(669.3,139.3) scale(6.75)' color='rgb( 34, 139,  34)'/>
	<use xlink:href='#gpPt5' transform='translate(674.1,138.2) scale(6.75)' color='rgb( 34, 139,  34)'/>
	<use xlink:href='#gpPt5' transform='translate(678.9,137.1) scale(6.75)' color='rgb( 34, 139,  34)'/>
	<use xlink:href='#gpPt5' transform='translate(683.8,136.0) scale(6.75)' color='rgb( 34, 139,  34)'/>
	<use xlink:href='#gpPt5' transform='translate(688.8,134.9) scale(6.75)' color='rgb( 34, 139,  34)'/>
	<use xlink:href='#gpPt5' transform='translate(693.9,133.9) scale(6.75)' color='rgb( 34, 139,  34)'/>
	<use xlink:href='#gpPt5' transform='translate(699.1,132.8) scale(6.75)' color='rgb( 34, 139,  34)'/>
	<use xlink:href='#gpPt5' transform='translate(704.5,131.7) scale(6.75)' color='rgb( 34, 139,  34)'/>
	<use xlink:href='#gpPt5' transform='translate(709.9,130.6) scale(6.75)' color='rgb( 34, 139,  34)'/>
	<use xlink:href='#gpPt5' transform='translate(715.5,129.6) scale(6.75)' color='rgb( 34, 139,  34)'/>
	<use xlink:href='#gpPt5' transform='translate(721.2,128.5) scale(6.75)' color='rgb( 34, 139,  34)'/>
	<use xlink:href='#gpPt5' transform='translate(727.0,127.4) scale(6.75)' color='rgb( 34, 139,  34)'/>
	<use xlink:href='#gpPt5' transform='translate(732.9,126.4) scale(6.75)' color='rgb( 34, 139,  34)'/>
	<use xlink:href='#gpPt5' transform='translate(739.0,125.3) scale(6.75)' color='rgb( 34, 139,  34)'/>
	<use xlink:href='#gpPt5' transform='translate(745.3,124.2) scale(6.75)' color='rgb( 34, 139,  34)'/>
	<use xlink:href='#gpPt5' transform='translate(751.7,123.2) scale(6.75)' color='rgb( 34, 139,  34)'/>
	<use xlink:href='#gpPt5' transform='translate(632.1,550.5) scale(6.75)' color='rgb( 34, 139,  34)'/>
</g>
	</g>
	<g id="gnuplot_plot_2" ><title>Exact solution: [1 + exp(-x)]⁻¹</title>
<g fill="none" color="#FFFFFF" stroke="rgb( 34, 139,  34)" stroke-width="2.00" stroke-linecap="butt" stroke-linejoin="miter">
</g>
<g fill="none" color="black" stroke="currentColor" stroke-width="2.00" stroke-linecap="butt" stroke-linejoin="miter">
	<g transform="translate(591.8,580.5)" stroke="none" fill="black" font-family="Arial" font-size="16.00"  text-anchor="end">
		<text><tspan font-family="Arial" >Exact solution: [1 + exp(-x)]⁻¹</tspan></text>
	</g>
</g>
<g fill="none" color="black" stroke="currentColor" stroke-width="2.00" stroke-linecap="butt" stroke-linejoin="miter">
	<path stroke='rgb(  0,   0,   0)'  d='M603.0,574.5 L661.3,574.5 M128.2,458.9 L129.4,457.8 L130.6,456.8 L131.7,455.8 L132.8,454.8 L133.9,453.8
		L135.0,452.9 L136.1,451.9 L137.1,451.0 L138.1,450.1 L139.2,449.1 L140.2,448.2 L141.3,447.3 L142.3,446.4
		L143.3,445.5 L144.4,444.6 L145.4,443.6 L146.4,442.7 L147.5,441.8 L148.5,440.9 L149.6,440.0 L150.6,439.0
		L151.6,438.1 L152.7,437.2 L153.7,436.3 L154.8,435.4 L155.8,434.4 L156.9,433.5 L157.9,432.6 L158.9,431.7
		L160.0,430.7 L161.0,429.8 L162.1,428.9 L163.1,428.0 L164.2,427.0 L165.3,426.1 L166.3,425.2 L167.4,424.2
		L168.4,423.3 L169.5,422.4 L170.5,421.4 L171.6,420.5 L172.7,419.6 L173.7,418.6 L174.8,417.7 L175.9,416.8
		L176.9,415.8 L178.0,414.9 L179.1,414.0 L180.2,413.0 L181.2,412.1 L182.3,411.1 L183.4,410.2 L184.5,409.3
		L185.6,408.3 L186.6,407.4 L187.7,406.4 L188.8,405.5 L189.9,404.5 L191.0,403.6 L192.1,402.6 L193.2,401.7
		L194.3,400.8 L195.4,399.8 L196.5,398.9 L197.6,397.9 L198.7,397.0 L199.8,396.0 L200.9,395.1 L202.0,394.1
		L203.1,393.1 L204.2,392.2 L205.3,391.2 L206.4,390.3 L207.5,389.3 L208.6,388.4 L209.8,387.4 L210.9,386.5
		L212.0,385.5 L213.1,384.5 L214.3,383.6 L215.4,382.6 L216.5,381.6 L217.7,380.7 L218.8,379.7 L219.9,378.8
		L221.1,377.8 L222.2,376.8 L223.4,375.9 L224.5,374.9 L225.7,373.9 L226.8,373.0 L228.0,372.0 L229.1,371.0
		L230.3,370.0 L231.5,369.1 L232.6,368.1 L233.8,367.1 L235.0,366.2 L236.1,365.2 L237.3,364.2 L238.5,363.2
		L239.7,362.3 L240.8,361.3 L242.0,360.3 L243.2,359.3 L244.4,358.3 L245.6,357.4 L246.8,356.4 L248.0,355.4
		L249.2,354.4 L250.4,353.4 L251.6,352.5 L252.8,351.5 L254.0,350.5 L255.2,349.5 L256.4,348.5 L257.7,347.5
		L258.9,346.5 L260.1,345.6 L261.3,344.6 L262.6,343.6 L263.8,342.6 L265.1,341.6 L266.3,340.6 L267.5,339.6
		L268.8,338.6 L270.1,337.6 L271.3,336.6 L272.6,335.6 L273.8,334.6 L275.1,333.6 L276.4,332.6 L277.6,331.6
		L278.9,330.6 L280.2,329.6 L281.5,328.6 L282.8,327.6 L284.1,326.6 L285.4,325.6 L286.7,324.6 L288.0,323.6
		L289.3,322.6 L290.6,321.6 L291.9,320.6 L293.2,319.6 L294.5,318.6 L295.9,317.6 L297.2,316.6 L298.5,315.6
		L299.9,314.6 L301.2,313.6 L302.6,312.5 L303.9,311.5 L305.3,310.5 L306.6,309.5 L308.0,308.5 L309.4,307.5
		L310.7,306.5 L312.1,305.4 L313.5,304.4 L314.9,303.4 L316.3,302.4 L317.7,301.4 L319.1,300.3 L320.5,299.3
		L321.9,298.3 L323.3,297.3 L324.8,296.3 L326.2,295.2 L327.6,294.2 L329.1,293.2 L330.5,292.2 L332.0,291.1
		L333.4,290.1 L334.9,289.1 L336.3,288.0 L337.8,287.0 L339.3,286.0 L340.8,285.0 L342.3,283.9 L343.8,282.9
		L345.3,281.9 L346.8,280.8 L348.3,279.8 L349.8,278.8 L351.4,277.7 L352.9,276.7 L354.4,275.7 L356.0,274.6
		L357.5,273.6 L359.1,272.5 L360.7,271.5 L362.2,270.5 L363.8,269.4 L365.4,268.4 L367.0,267.3 L368.6,266.3
		L370.2,265.3 L371.9,264.2 L373.5,263.2 L375.1,262.1 L376.8,261.1 L378.4,260.0 L380.1,259.0 L381.7,257.9
		L383.4,256.9 L385.1,255.8 L386.8,254.8 L388.5,253.7 L390.2,252.7 L391.9,251.6 L393.6,250.6 L395.4,249.5
		L397.1,248.5 L398.9,247.4 L400.6,246.4 L402.4,245.3 L404.2,244.2 L406.0,243.2 L407.8,242.1 L409.6,241.1
		L411.4,240.0 L413.3,239.0 L415.1,237.9 L417.0,236.8 L418.9,235.8 L420.7,234.7 L422.6,233.6 L424.5,232.6
		L426.4,231.5 L428.4,230.5 L430.3,229.4 L432.2,228.3 L434.2,227.3 L436.2,226.2 L438.2,225.1 L440.2,224.1
		L442.2,223.0 L444.2,221.9 L446.3,220.9 L448.3,219.8 L450.4,218.7 L452.5,217.6 L454.6,216.6 L456.7,215.5
		L458.8,214.4 L460.9,213.4 L463.1,212.3 L465.3,211.2 L467.5,210.1 L469.7,209.1 L471.9,208.0 L474.1,206.9
		L476.4,205.8 L478.7,204.8 L481.0,203.7 L483.3,202.6 L485.6,201.5 L488.0,200.4 L490.3,199.4 L492.7,198.3
		L495.1,197.2 L497.6,196.1 L500.0,195.0 L502.5,194.0 L505.0,192.9 L507.5,191.8 L510.1,190.7 L512.6,189.6
		L515.2,188.5 L517.8,187.5 L520.5,186.4 L523.1,185.3 L525.8,184.2 L528.5,183.1 L531.3,182.0 L534.1,181.0
		L536.9,179.9 L539.7,178.8 L542.5,177.7 L545.4,176.6 L548.4,175.5 L551.3,174.4 L554.3,173.3 L557.3,172.3
		L560.4,171.2 L563.5,170.1 L566.6,169.0 L569.8,167.9 L573.0,166.8 L576.2,165.7 L579.5,164.6 L582.8,163.6
		L586.2,162.5 L589.6,161.4 L593.0,160.3 L596.5,159.2 L600.1,158.1 L603.7,157.0 L607.3,155.9 L611.0,154.9
		L614.8,153.8 L618.6,152.7 L622.4,151.6 L626.4,150.5 L630.4,149.4 L634.4,148.3 L638.5,147.3 L642.7,146.2
		L647.0,145.1 L651.3,144.0 L655.7,142.9 L660.2,141.8 L664.7,140.8 L669.3,139.7 L674.1,138.6 L678.9,137.5
		L683.8,136.4 L688.8,135.4 L693.9,134.3 L699.1,133.2 L704.5,132.1 L709.9,131.1 L715.5,130.0 L721.2,128.9
		L727.0,127.8 L732.9,126.8 L739.0,125.7 L745.3,124.7 L751.7,123.6  '/></g>
	</g>
<g fill="none" color="black" stroke="currentColor" stroke-width="2.00" stroke-linecap="butt" stroke-linejoin="miter">
</g>
<g fill="none" color="black" stroke="black" stroke-width="1.00" stroke-linecap="butt" stroke-linejoin="miter">
</g>
<g fill="none" color="black" stroke="currentColor" stroke-width="1.00" stroke-linecap="butt" stroke-linejoin="miter">
	<path stroke='black'  d='M128.2,87.8 L128.2,458.9 L755.4,458.9 L755.4,87.8 L128.2,87.8 Z  '/></g>
<g fill="none" color="black" stroke="currentColor" stroke-width="1.00" stroke-linecap="butt" stroke-linejoin="miter">
</g>
</g>
</svg>

