gamma(5) = 24
J1(0.5) = 0.242268
sqrt(-2) = 0 + i1.41421
exp(i) = 0.540302 + i0.841471
exp(i*pi) = -1 + i1.22465e-16
i^e = -0.42822 + i-0.903675
double x = 0.1111111111111111049432054
float x = 0.1111111119389533996582031
long double x = 0.1111111111111111111096053
