\relax 
\@writefile{toc}{\contentsline {section}{\numberline {1}Introduction}{1}}
\newlabel{eq:ode}{{1}{1}}
\newlabel{eq:reduction}{{2}{1}}
\@writefile{toc}{\contentsline {section}{\numberline {2}Implementation and results}{1}}
\@writefile{lof}{\contentsline {figure}{\numberline {1}{\ignorespaces Number of calls of the \texttt  {ode\_ln} function as a function of the input value, $x$.}}{2}}
\newlabel{fig:calls}{{1}{2}}
\@writefile{lof}{\contentsline {figure}{\numberline {2}{\ignorespaces Plot of $y = \qopname  \relax o{ln}(x)$ calculated using the \texttt  {ode\_ln} and \texttt  {log} functions.}}{3}}
\newlabel{fig:ln}{{2}{3}}
\@writefile{toc}{\contentsline {section}{\numberline {3}Conclusion}{4}}
\@writefile{toc}{\contentsline {section}{\numberline {4}Appendix}{5}}
\@writefile{lol}{\contentsline {lstlisting}{Makefile}{5}}
\@writefile{lol}{\contentsline {lstlisting}{header.h}{6}}
\@writefile{lol}{\contentsline {lstlisting}{main.c}{6}}
\@writefile{lol}{\contentsline {lstlisting}{ode\textunderscore ln.c}{7}}
